3E3E
B0B0
5353
EBEB
0505
3E3E
B0B0
5353
EBEB
0505
3E3E
5555
A6A6
2C2C
CBCB
6262
EAE3
4D4D
A9A9
5A5A
1A1A
D8D8
B8B8
ADAD
2B2B
C5C5
3535
4A4A
6D6D
9494
E2E2
C6C6
B9B9
5151
5B5B
D1D1
0D0D
BBBB
1111
CBCB
A2A2
E4E4
B8B8
D1D1
3B3B
C9C9
0B0B
BABA
9191
ABAB
1616
F0F0
9393
EBEB
0505
3E3E
B0B0
5353
E5E5
5A5A
6262
CCCC
B8B8
AEAE
A434
DADA
9595
A1A1
ADAD
8B8B
8A8A
D2D2
BCBC
5353
5454
A6A6
D9D9
4E4E
2C2C
6B6B
9595
1515
BDBD
1010
DBDB
B1B1
1C1C
BABA
2E2E
4B4B
8D8D
1313
BCBC
9090
BBBB
A9A9
1A1A
B1B1
6F6F
0909
3E3E
B0B0
5353
EBEB
0505
3E3E
5555
A6A6
2C2C
CBCB
4A4A
EAE3
4D4D
A9A9
5A5A
1A1A
D8D8
B8B8
ADAD
2B2B
C5C5
3535
4A4A
6D6D
9494
E2E2
C6C6
B9B9
5151
5B5B
D1D1
0D0D
BBBB
1111
CBCB
A2A2
E4E4
B8B8
D1D1
3B3B
C9C9
0B0B
BABA
9191
ABAB
1616
F0F0
9393
EBEB
0505
3E3E
B0B0
5353
E5E5
5A5A
6262
CCCC
BCBC
5252
AB3B
2626
9595
AEAE
5252
7474
7575
2D2D
4C4C
6C6C
ABAB
A5A5
1919
B1B1
D3D3
9494
9696
D5D5
4D4D
2C2C
D4D4
B2B2
DCDC
4545
D1D1
B4B4
8E8E
D3D3
4C4C
ACAC
B4B4
AAAA
DADA
4E4E
9090
F6F6
C1C1
4F4F
ACAC
1414
FAFA
C1C1
9595
A9A9
D3D3
3434
D5D5
2A23
B2B2
6969
5A5A
E5E5
2727
4747
5252
D4D4
C6C6
CACA
BABA
5151
9B9B
1D1D
3939
4949
6D6D
5454
D2D2
CDCD
4B4B
2D2D
C4C4
5D5D
1B1B
4848
EDED
3434
CACA
CBCB
4A4A
ADAD
A4A4
E9E9
0F0F
6C6C
1414
FAFA
C1C1
4F4F
ACAC
1919
5A5A
9D9D
3333
4A4A
6E6E
A434
DADA
9595
A1A1
ADAD
8B8B
8A8A
D2D2
BCBC
5353
5454
A6A6
D9D9
4E4E
2C2C
6B6B
9595
1515
BDBD
1010
DBDB
B1B1
1C1C
BABA
2E2E
4B4B
8D8D
1313
BCBC
9090
BBBB
A9A9
1A1A
B1B1
6F6F
0909
3E3E
B0B0
5353
EBEB
0505
3E3E
5555
A6A6
2C2C
CBCB
6565
2A23
B2B2
6969
5A5A
E5E5
2727
4747
5252
D4D4
C6C6
CACA
BABA
5151
9B9B
1D1D
3939
4949
6D6D
5454
D2D2
CDCD
4B4B
2D2D
C4C4
5D5D
1B1B
4848
EDED
3434
CACA
CBCB
4A4A
ADAD
A4A4
E9E9
0F0F
6C6C
1414
FAFA
C1C1
4F4F
ACAC
1919
5A5A
9D9D
3333
4E4E
2E2E
A434
DADA
9595
A1A1
ADAD
8B8B
8A8A
D2D2
BCBC
5353
5454
A6A6
D9D9
4E4E
2C2C
6B6B
9595
1515
BDBD
1010
DBDB
B1B1
1C1C
BABA
2E2E
4B4B
8D8D
1313
BCBC
9090
BBBB
A9A9
1A1A
B1B1
6F6F
0909
3E3E
B0B0
5353
EBEB
0505
3E3E
5555
A6A6
2C2C
CBCB
1A1A
EAE3
4D4D
A9A9
5A5A
1A1A
D8D8
B8B8
ADAD
2B2B
C5C5
3535
4A4A
6D6D
9494
E2E2
C6C6
B9B9
5151
5B5B
D1D1
0D0D
BBBB
1111
CBCB
A2A2
E4E4
B8B8
D1D1
3B3B
C9C9
0B0B
BABA
9191
ABAB
1616
F0F0
9393
EBEB
0505
3E3E
B0B0
5353
E5E5
5A5A
6262
CCCC
B9B9
5252
AB3B
2626
9595
AEAE
5252
7474
7575
2D2D
4C4C
6C6C
ABAB
A5A5
1919
B1B1
D3D3
9494
9696
D5D5
4D4D
2C2C
D4D4
B2B2
DCDC
4545
D1D1
B4B4
8E8E
D3D3
4C4C
ACAC
B4B4
AAAA
DADA
4E4E
9090
F6F6
C1C1
4F4F
ACAC
1414
FAFA
C1C1
9595
A9A9
D3D3
3434
5656
EAE3
4D4D
A9A9
5A5A
1A1A
D8D8
B8B8
ADAD
2B2B
C5C5
3535
4A4A
6D6D
9494
E2E2
C6C6
B9B9
5151
5B5B
D1D1
0D0D
BBBB
1111
CBCB
A2A2
E4E4
B8B8
D1D1
3B3B
C9C9
0B0B
BABA
9191
ABAB
1616
F0F0
9393
EBEB
0505
3E3E
B0B0
5353
E5E5
5A5A
6262
CCCC
BDBD
1212
AB3B
2626
9595
AEAE
5252
7474
7575
2D2D
4C4C
6C6C
ABAB
A5A5
1919
B1B1
D3D3
9494
9696
D5D5
4D4D
2C2C
D4D4
B2B2
DCDC
4545
D1D1
B4B4
8E8E
D3D3
4C4C
ACAC
B4B4
AAAA
DADA
4E4E
9090
F6F6
C1C1
4F4F
ACAC
1414
FAFA
C1C1
9595
A9A9
D3D3
3434
3636
EAE3
4D4D
A9A9
5A5A
1A1A
D8D8
B8B8
ADAD
2B2B
C5C5
3535
4A4A
6D6D
9494
E2E2
C6C6
B9B9
5151
5B5B
D1D1
0D0D
BBBB
1111
CBCB
A2A2
E4E4
B8B8
D1D1
3B3B
C9C9
0B0B
BABA
9191
ABAB
1616
F0F0
9393
EBEB
0505
3E3E
B0B0
5353
E5E5
5A5A
6262
CCCC
BBBB
1212
AB3B
2626
9595
AEAE
5252
7474
7575
2D2D
4C4C
6C6C
ABAB
A5A5
1919
B1B1
D3D3
9494
9696
D5D5
4D4D
2C2C
D4D4
B2B2
DCDC
4545
D1D1
B4B4
8E8E
D3D3
4C4C
ACAC
B4B4
AAAA
DADA
4E4E
9090
F6F6
C1C1
4F4F
ACAC
1414
FAFA
C1C1
9595
A9A9
D3D3
3434
7272
EAE3
4D4D
A9A9
5A5A
1A1A
D8D8
B8B8
ADAD
2B2B
C5C5
3535
4A4A
6D6D
9494
E2E2
C6C6
B9B9
5151
5B5B
D1D1
0D0D
BBBB
1111
CBCB
A2A2
E4E4
B8B8
D1D1
3B3B
C9C9
0B0B
BABA
9191
ABAB
1616
F0F0
9393
EBEB
0505
3E3E
B0B0
5353
E5E5
5A5A
6262
CCCC
BABA
2E2E
A434
DADA
9595
A1A1
ADAD
8B8B
8A8A
D2D2
BCBC
5353
5454
A6A6
D9D9
4E4E
2C2C
6B6B
9595
1515
BDBD
1010
DBDB
B1B1
1C1C
BABA
2E2E
4B4B
8D8D
1313
BCBC
9090
BBBB
A9A9
1A1A
B1B1
6F6F
0909
3E3E
B0B0
5353
EBEB
0505
3E3E
5555
A6A6
2C2C
CBCB
9292
EAE3
4D4D
A9A9
5A5A
1A1A
D8D8
B8B8
ADAD
2B2B
C5C5
3535
4A4A
6D6D
9494
E2E2
C6C6
B9B9
5151
5B5B
D1D1
0D0D
BBBB
1111
CBCB
A2A2
E4E4
B8B8
D1D1
3B3B
C9C9
0B0B
BABA
9191
ABAB
1616
F0F0
9393
EBEB
0505
3E3E
B0B0
5353
E5E5
5A5A
6262
CCCC
B8B8
D2D2
AB3B
2626
9595
AEAE
5252
7474
7575
2D2D
4C4C
6C6C
ABAB
A5A5
1919
B1B1
D3D3
9494
9696
D5D5
4D4D
2C2C
D4D4
B2B2
DCDC
4545
D1D1
B4B4
8E8E
D3D3
4C4C
ACAC
B4B4
AAAA
DADA
4E4E
9090
F6F6
C1C1
4F4F
ACAC
1414
FAFA
C1C1
9595
A9A9
D3D3
3434
4E4E
EAE3
4D4D
A9A9
5A5A
1A1A
D8D8
B8B8
ADAD
2B2B
C5C5
3535
4A4A
6D6D
9494
E2E2
C6C6
B9B9
5151
5B5B
D1D1
0D0D
BBBB
1111
CBCB
A2A2
E4E4
B8B8
D1D1
3B3B
C9C9
0B0B
BABA
9191
ABAB
1616
F0F0
9393
EBEB
0505
3E3E
B0B0
5353
E5E5
5A5A
6262
CCCC
BCBC
9292
AB3B
2626
9595
AEAE
5252
7474
7575
2D2D
4C4C
6C6C
ABAB
A5A5
1919
B1B1
D3D3
9494
9696
D5D5
4D4D
2C2C
D4D4
B2B2
DCDC
4545
D1D1
B4B4
8E8E
D3D3
4C4C
ACAC
B4B4
AAAA
DADA
4E4E
9090
F6F6
C1C1
4F4F
ACAC
1414
FAFA
C1C1
9595
A9A9
D3D3
3434
2E2E
EAE3
4D4D
A9A9
5A5A
1A1A
D8D8
B8B8
ADAD
2B2B
C5C5
3535
4A4A
6D6D
9494
E2E2
C6C6
B9B9
5151
5B5B
D1D1
0D0D
BBBB
1111
CBCB
A2A2
E4E4
B8B8
D1D1
3B3B
C9C9
0B0B
BABA
9191
ABAB
1616
F0F0
9393
EBEB
0505
3E3E
B0B0
5353
E5E5
5A5A
6262
CCCC
BABA
9292
AB3B
2626
9595
AEAE
5252
7474
7575
2D2D
4C4C
6C6C
ABAB
A5A5
1919
B1B1
D3D3
9494
9696
D5D5
4D4D
2C2C
D4D4
B2B2
DCDC
4545
D1D1
B4B4
8E8E
D3D3
4C4C
ACAC
B4B4
AAAA
DADA
4E4E
9090
F6F6
C1C1
4F4F
ACAC
1414
FAFA
C1C1
9595
A9A9
D3D3
3434
6A6A
EAE3
4D4D
A9A9
5A5A
1A1A
D8D8
B8B8
ADAD
2B2B
C5C5
3535
4A4A
6D6D
9494
E2E2
C6C6
B9B9
5151
5B5B
D1D1
0D0D
BBBB
1111
CBCB
A2A2
E4E4
B8B8
D1D1
3B3B
C9C9
0B0B
BABA
9191
ABAB
1616
F0F0
9393
EBEB
0505
3E3E
B0B0
5353
E5E5
5A5A
6262
CCCC
B1B1
6E6E
A434
DADA
9595
A1A1
ADAD
8B8B
8A8A
D2D2
BCBC
5353
5454
A6A6
D9D9
4E4E
2C2C
6B6B
9595
1515
BDBD
1010
DBDB
B1B1
1C1C
BABA
2E2E
4B4B
8D8D
1313
BCBC
9090
BBBB
A9A9
1A1A
B1B1
6F6F
0909
3E3E
B0B0
5353
EBEB
0505
3E3E
5555
A6A6
2C2C
CBCB
3232
EAE3
4D4D
A9A9
5A5A
1A1A
D8D8
B8B8
ADAD
2B2B
C5C5
3535
4A4A
6D6D
9494
E2E2
C6C6
B9B9
5151
5B5B
D1D1
0D0D
BBBB
1111
CBCB
A2A2
E4E4
B8B8
D1D1
3B3B
C9C9
0B0B
BABA
9191
ABAB
1616
F0F0
9393
EBEB
0505
3E3E
B0B0
5353
E5E5
5A5A
6262
CCCC
B9B9
9292
AB3B
2626
9595
AEAE
5252
7474
7575
2D2D
4C4C
6C6C
ABAB
A5A5
1919
B1B1
D3D3
9494
9696
D5D5
4D4D
2C2C
D4D4
B2B2
DCDC
4545
D1D1
B4B4
8E8E
D3D3
4C4C
ACAC
B4B4
AAAA
DADA
4E4E
9090
F6F6
C1C1
4F4F
ACAC
1414
FAFA
C1C1
9595
A9A9
D3D3
3434
5A5A
EAE3
4D4D
A9A9
5A5A
1A1A
D8D8
B8B8
ADAD
2B2B
C5C5
3535
4A4A
6D6D
9494
E2E2
C6C6
B9B9
5151
5B5B
D1D1
0D0D
BBBB
1111
CBCB
A2A2
E4E4
B8B8
D1D1
3B3B
C9C9
0B0B
BABA
9191
ABAB
1616
F0F0
9393
EBEB
0505
3E3E
B0B0
5353
E5E5
5A5A
6262
CCCC
B2B2
6E6E
A434
DADA
9595
A1A1
ADAD
8B8B
8A8A
D2D2
BCBC
5353
5454
A6A6
D9D9
4E4E
2C2C
6B6B
9595
1515
BDBD
1010
DBDB
B1B1
1C1C
BABA
2E2E
4B4B
8D8D
1313
BCBC
9090
BBBB
A9A9
1A1A
B1B1
6F6F
0909
3E3E
B0B0
5353
EBEB
0505
3E3E
5555
A6A6
2C2C
CBCB
3939
2A23
B2B2
6969
5A5A
E5E5
2727
4747
5252
D4D4
C6C6
CACA
BABA
5151
9B9B
1D1D
3939
4949
6D6D
5454
D2D2
CDCD
4B4B
2D2D
C4C4
5D5D
1B1B
4848
EDED
3434
CACA
CBCB
4A4A
ADAD
A4A4
E9E9
0F0F
6C6C
1414
FAFA
C1C1
4F4F
ACAC
1919
5A5A
9D9D
3333
4B4B
9292
AB3B
2626
9595
AEAE
5252
7474
7575
2D2D
4C4C
6C6C
ABAB
A5A5
1919
B1B1
D3D3
9494
9696
D5D5
4D4D
2C2C
D4D4
B2B2
DCDC
4545
D1D1
B4B4
8E8E
D3D3
4C4C
ACAC
B4B4
AAAA
DADA
4E4E
9090
F6F6
C1C1
4F4F
ACAC
1414
FAFA
C1C1
9595
A9A9
D3D3
3434
7979
2A23
B2B2
6969
5A5A
E5E5
2727
4747
5252
D4D4
C6C6
CACA
BABA
5151
9B9B
1D1D
3939
4949
6D6D
5454
D2D2
CDCD
4B4B
2D2D
C4C4
5D5D
1B1B
4848
EDED
3434
CACA
CBCB
4A4A
ADAD
A4A4
E9E9
0F0F
6C6C
1414
FAFA
C1C1
4F4F
ACAC
1919
5A5A
9D9D
3333
4A4A
D2D2
AB3B
2626
9595
AEAE
5252
7474
7575
2D2D
4C4C
6C6C
ABAB
A5A5
1919
B1B1
D3D3
9494
9696
D5D5
4D4D
2C2C
D4D4
B2B2
DCDC
4545
D1D1
B4B4
8E8E
D3D3
4C4C
ACAC
B4B4
AAAA
DADA
4E4E
9090
F6F6
C1C1
4F4F
ACAC
1414
FAFA
C1C1
9595
A9A9
D3D3
3434
9E9E
6A63
4D4D
A9A9
5A5A
1A1A
D8D8
B8B8
ADAD
2B2B
C5C5
3535
4A4A
6D6D
9494
E2E2
C6C6
B9B9
5151
5B5B
D1D1
0D0D
BBBB
1111
CBCB
A2A2
E4E4
B8B8
D1D1
3B3B
C9C9
0B0B
BABA
9191
ABAB
1616
F0F0
9393
EBEB
0505
3E3E
B0B0
5353
E5E5
5A5A
6262
CCCC
B8B8
A6A6
AB3B
2626
9595
AEAE
5252
7474
7575
2D2D
4C4C
6C6C
ABAB
A5A5
1919
B1B1
D3D3
9494
9696
D5D5
4D4D
2C2C
D4D4
B2B2
DCDC
4545
D1D1
B4B4
8E8E
D3D3
4C4C
ACAC
B4B4
AAAA
DADA
4E4E
9090
F6F6
C1C1
4F4F
ACAC
1414
FAFA
C1C1
9595
A9A9
D3D3
3434
B6B6
6A63
4D4D
A9A9
5A5A
1A1A
D8D8
B8B8
ADAD
2B2B
C5C5
3535
4A4A
6D6D
9494
E2E2
C6C6
B9B9
5151
5B5B
D1D1
0D0D
BBBB
1111
CBCB
A2A2
E4E4
B8B8
D1D1
3B3B
C9C9
0B0B
BABA
9191
ABAB
1616
F0F0
9393
EBEB
0505
3E3E
B0B0
5353
E5E5
5A5A
6262
CCCC
BCBC
6666
A434
DADA
9595
A1A1
ADAD
8B8B
8A8A
D2D2
BCBC
5353
5454
A6A6
D9D9
4E4E
2C2C
6B6B
9595
1515
BDBD
1010
DBDB
B1B1
1C1C
BABA
2E2E
4B4B
8D8D
1313
BCBC
9090
BBBB
A9A9
1A1A
B1B1
6F6F
0909
3E3E
B0B0
5353
EBEB
0505
3E3E
5555
A6A6
2C2C
CBCB
2A2A
6A63
B2B2
6969
5A5A
E5E5
2727
4747
5252
D4D4
C6C6
CACA
BABA
5151
9B9B
1D1D
3939
4949
6D6D
5454
D2D2
CDCD
4B4B
2D2D
C4C4
5D5D
1B1B
4848
EDED
3434
CACA
CBCB
4A4A
ADAD
A4A4
E9E9
0F0F
6C6C
1414
FAFA
C1C1
4F4F
ACAC
1919
5A5A
9D9D
3333
4A4A
6666
AB3B
2626
9595
AEAE
5252
7474
7575
2D2D
4C4C
6C6C
ABAB
A5A5
1919
B1B1
D3D3
9494
9696
D5D5
4D4D
2C2C
D4D4
B2B2
DCDC
4545
D1D1
B4B4
8E8E
D3D3
4C4C
ACAC
B4B4
AAAA
DADA
4E4E
9090
F6F6
C1C1
4F4F
ACAC
1414
FAFA
C1C1
9595
A9A9
D3D3
3434
6666
6A63
B2B2
6969
5A5A
E5E5
2727
4747
5252
D4D4
C6C6
CACA
BABA
5151
9B9B
1D1D
3939
4949
6D6D
5454
D2D2
CDCD
4B4B
2D2D
C4C4
5D5D
1B1B
4848
EDED
3434
CACA
CBCB
4A4A
ADAD
A4A4
E9E9
0F0F
6C6C
1414
FAFA
C1C1
4F4F
ACAC
1919
5A5A
9D9D
3333
4E4E
2626
AB3B
2626
9595
AEAE
5252
7474
7575
2D2D
4C4C
6C6C
ABAB
A5A5
1919
B1B1
D3D3
9494
9696
D5D5
4D4D
2C2C
D4D4
B2B2
DCDC
4545
D1D1
B4B4
8E8E
D3D3
4C4C
ACAC
B4B4
AAAA
DADA
4E4E
9090
F6F6
C1C1
4F4F
ACAC
1414
FAFA
C1C1
9595
A9A9
D3D3
3434
E6E6
6A63
4D4D
A9A9
5A5A
1A1A
D8D8
B8B8
ADAD
2B2B
C5C5
3535
4A4A
6D6D
9494
E2E2
C6C6
B9B9
5151
5B5B
D1D1
0D0D
BBBB
1111
CBCB
A2A2
E4E4
B8B8
D1D1
3B3B
C9C9
0B0B
BABA
9191
ABAB
1616
F0F0
9393
EBEB
0505
3E3E
B0B0
5353
E5E5
5A5A
6262
CCCC
B9B9
6666
A434
DADA
9595
A1A1
ADAD
8B8B
8A8A
D2D2
BCBC
5353
5454
A6A6
D9D9
4E4E
2C2C
6B6B
9595
1515
BDBD
1010
DBDB
B1B1
1C1C
BABA
2E2E
4B4B
8D8D
1313
BCBC
9090
BBBB
A9A9
1A1A
B1B1
6F6F
0909
3E3E
B0B0
5353
EBEB
0505
3E3E
5555
A6A6
2C2C
CBCB
5656
6A63
4D4D
A9A9
5A5A
1A1A
D8D8
B8B8
ADAD
2B2B
C5C5
3535
4A4A
6D6D
9494
E2E2
C6C6
B9B9
5151
5B5B
D1D1
0D0D
BBBB
1111
CBCB
A2A2
E4E4
B8B8
D1D1
3B3B
C9C9
0B0B
BABA
9191
ABAB
1616
F0F0
9393
EBEB
0505
3E3E
B0B0
5353
E5E5
5A5A
6262
CCCC
BDBD
2626
A434
DADA
9595
A1A1
ADAD
8B8B
8A8A
D2D2
BCBC
5353
5454
A6A6
D9D9
4E4E
2C2C
6B6B
9595
1515
BDBD
1010
DBDB
B1B1
1C1C
BABA
2E2E
4B4B
8D8D
1313
BCBC
9090
BBBB
A9A9
1A1A
B1B1
6F6F
0909
3E3E
B0B0
5353
EBEB
0505
3E3E
5555
A6A6
2C2C
CBCB
3636
6A63
4D4D
A9A9
5A5A
1A1A
D8D8
B8B8
ADAD
2B2B
C5C5
3535
4A4A
6D6D
9494
E2E2
C6C6
B9B9
5151
5B5B
D1D1
0D0D
BBBB
1111
CBCB
A2A2
E4E4
B8B8
D1D1
3B3B
C9C9
0B0B
BABA
9191
ABAB
1616
F0F0
9393
EBEB
0505
3E3E
B0B0
5353
E5E5
5A5A
6262
CCCC
BBBB
2626
A434
DADA
9595
A1A1
ADAD
8B8B
8A8A
D2D2
BCBC
5353
5454
A6A6
D9D9
4E4E
2C2C
6B6B
9595
1515
BDBD
1010
DBDB
B1B1
1C1C
BABA
2E2E
4B4B
8D8D
1313
BCBC
9090
BBBB
A9A9
1A1A
B1B1
6F6F
0909
3E3E
B0B0
5353
EBEB
0505
3E3E
5555
A6A6
2C2C
CBCB
7272
6A63
4D4D
A9A9
5A5A
1A1A
D8D8
B8B8
ADAD
2B2B
C5C5
3535
4A4A
6D6D
9494
E2E2
C6C6
B9B9
5151
5B5B
D1D1
0D0D
BBBB
1111
CBCB
A2A2
E4E4
B8B8
D1D1
3B3B
C9C9
0B0B
BABA
9191
ABAB
1616
F0F0
9393
EBEB
0505
3E3E
B0B0
5353
E5E5
5A5A
6262
CCCC
BABA
2626
AB3B
2626
9595
AEAE
5252
7474
7575
2D2D
4C4C
6C6C
ABAB
A5A5
1919
B1B1
D3D3
9494
9696
D5D5
4D4D
2C2C
D4D4
B2B2
DCDC
4545
D1D1
B4B4
8E8E
D3D3
4C4C
ACAC
B4B4
AAAA
DADA
4E4E
9090
F6F6
C1C1
4F4F
ACAC
1414
FAFA
C1C1
9595
A9A9
D3D3
3434
6E6E
6A63
4D4D
A9A9
5A5A
1A1A
D8D8
B8B8
ADAD
2B2B
C5C5
3535
4A4A
6D6D
9494
E2E2
C6C6
B9B9
5151
5B5B
D1D1
0D0D
BBBB
1111
CBCB
A2A2
E4E4
B8B8
D1D1
3B3B
C9C9
0B0B
BABA
9191
ABAB
1616
F0F0
9393
EBEB
0505
3E3E
B0B0
5353
E5E5
5A5A
6262
CCCC
B8B8
E6E6
A434
DADA
9595
A1A1
ADAD
8B8B
8A8A
D2D2
BCBC
5353
5454
A6A6
D9D9
4E4E
2C2C
6B6B
9595
1515
BDBD
1010
DBDB
B1B1
1C1C
BABA
2E2E
4B4B
8D8D
1313
BCBC
9090
BBBB
A9A9
1A1A
B1B1
6F6F
0909
3E3E
B0B0
5353
EBEB
0505
3E3E
5555
A6A6
2C2C
CBCB
4E4E
6A63
4D4D
A9A9
5A5A
1A1A
D8D8
B8B8
ADAD
2B2B
C5C5
3535
4A4A
6D6D
9494
E2E2
C6C6
B9B9
5151
5B5B
D1D1
0D0D
BBBB
1111
CBCB
A2A2
E4E4
B8B8
D1D1
3B3B
C9C9
0B0B
BABA
9191
ABAB
1616
F0F0
9393
EBEB
0505
3E3E
B0B0
5353
E5E5
5A5A
6262
CCCC
BCBC
A6A6
A434
DADA
9595
A1A1
ADAD
8B8B
8A8A
D2D2
BCBC
5353
5454
A6A6
D9D9
4E4E
2C2C
6B6B
9595
1515
BDBD
1010
DBDB
B1B1
1C1C
BABA
2E2E
4B4B
8D8D
1313
BCBC
9090
BBBB
A9A9
1A1A
B1B1
6F6F
0909
3E3E
B0B0
5353
EBEB
0505
3E3E
5555
A6A6
2C2C
CBCB
2E2E
6A63
4D4D
A9A9
5A5A
1A1A
D8D8
B8B8
ADAD
2B2B
C5C5
3535
4A4A
6D6D
9494
E2E2
C6C6
B9B9
5151
5B5B
D1D1
0D0D
BBBB
1111
CBCB
A2A2
E4E4
B8B8
D1D1
3B3B
C9C9
0B0B
BABA
9191
ABAB
1616
F0F0
9393
EBEB
0505
3E3E
B0B0
5353
E5E5
5A5A
6262
CCCC
BABA
A6A6
A434
DADA
9595
A1A1
ADAD
8B8B
8A8A
D2D2
BCBC
5353
5454
A6A6
D9D9
4E4E
2C2C
6B6B
9595
1515
BDBD
1010
DBDB
B1B1
1C1C
BABA
2E2E
4B4B
8D8D
1313
BCBC
9090
BBBB
A9A9
1A1A
B1B1
6F6F
0909
3E3E
B0B0
5353
EBEB
0505
3E3E
5555
A6A6
2C2C
CBCB
6A6A
6A63
4D4D
A9A9
5A5A
1A1A
D8D8
B8B8
ADAD
2B2B
C5C5
3535
4A4A
6D6D
9494
E2E2
C6C6
B9B9
5151
5B5B
D1D1
0D0D
BBBB
1111
CBCB
A2A2
E4E4
B8B8
D1D1
3B3B
C9C9
0B0B
BABA
9191
ABAB
1616
F0F0
9393
EBEB
0505
3E3E
B0B0
5353
E5E5
5A5A
6262
CCCC
B1B1
6666
AB3B
2626
9595
AEAE
5252
7474
7575
2D2D
4C4C
6C6C
ABAB
A5A5
1919
B1B1
D3D3
9494
9696
D5D5
4D4D
2C2C
D4D4
B2B2
DCDC
4545
D1D1
B4B4
8E8E
D3D3
4C4C
ACAC
B4B4
AAAA
DADA
4E4E
9090
F6F6
C1C1
4F4F
ACAC
1414
FAFA
C1C1
9595
A9A9
D3D3
3434
CECE
6A63
4D4D
A9A9
5A5A
1A1A
D8D8
B8B8
ADAD
2B2B
C5C5
3535
4A4A
6D6D
9494
E2E2
C6C6
B9B9
5151
5B5B
D1D1
0D0D
BBBB
1111
CBCB
A2A2
E4E4
B8B8
D1D1
3B3B
C9C9
0B0B
BABA
9191
ABAB
1616
F0F0
9393
EBEB
0505
3E3E
B0B0
5353
E5E5
5A5A
6262
CCCC
B9B9
A6A6
A434
DADA
9595
A1A1
ADAD
8B8B
8A8A
D2D2
BCBC
5353
5454
A6A6
D9D9
4E4E
2C2C
6B6B
9595
1515
BDBD
1010
DBDB
B1B1
1C1C
BABA
2E2E
4B4B
8D8D
1313
BCBC
9090
BBBB
A9A9
1A1A
B1B1
6F6F
0909
3E3E
B0B0
5353
EBEB
0505
3E3E
5555
A6A6
2C2C
CBCB
5A5A
6A63
4D4D
A9A9
5A5A
1A1A
D8D8
B8B8
ADAD
2B2B
C5C5
3535
4A4A
6D6D
9494
E2E2
C6C6
B9B9
5151
5B5B
D1D1
0D0D
BBBB
1111
CBCB
A2A2
E4E4
B8B8
D1D1
3B3B
C9C9
0B0B
BABA
9191
ABAB
1616
F0F0
9393
EBEB
0505
3E3E
B0B0
5353
E5E5
5A5A
6262
CCCC
B2B2
6666
AB3B
2626
9595
AEAE
5252
7474
7575
2D2D
4C4C
6C6C
ABAB
A5A5
1919
B1B1
D3D3
9494
9696
D5D5
4D4D
2C2C
D4D4
B2B2
DCDC
4545
D1D1
B4B4
8E8E
D3D3
4C4C
ACAC
B4B4
AAAA
DADA
4E4E
9090
F6F6
C1C1
4F4F
ACAC
1414
FAFA
C1C1
9595
A9A9
D3D3
3434
3A3A
6A63
B2B2
6969
5A5A
E5E5
2727
4747
5252
D4D4
C6C6
CACA
BABA
5151
9B9B
1D1D
3939
4949
6D6D
5454
D2D2
CDCD
4B4B
2D2D
C4C4
5D5D
1B1B
4848
EDED
3434
CACA
CBCB
4A4A
ADAD
A4A4
E9E9
0F0F
6C6C
1414
FAFA
C1C1
4F4F
ACAC
1919
5A5A
9D9D
3333
4B4B
A6A6
A434
DADA
9595
A1A1
ADAD
8B8B
8A8A
D2D2
BCBC
5353
5454
A6A6
D9D9
4E4E
2C2C
6B6B
9595
1515
BDBD
1010
DBDB
B1B1
1C1C
BABA
2E2E
4B4B
8D8D
1313
BCBC
9090
BBBB
A9A9
1A1A
B1B1
6F6F
0909
3E3E
B0B0
5353
EBEB
0505
3E3E
5555
A6A6
2C2C
CBCB
8686
6A63
B2B2
6969
5A5A
E5E5
2727
4747
5252
D4D4
C6C6
CACA
BABA
5151
9B9B
1D1D
3939
4949
6D6D
5454
D2D2
CDCD
4B4B
2D2D
C4C4
5D5D
1B1B
4848
EDED
3434
CACA
CBCB
4A4A
ADAD
A4A4
E9E9
0F0F
6C6C
1414
FAFA
C1C1
4F4F
ACAC
1919
5A5A
9D9D
3333
4A4A
E6E6
A434
DADA
9595
A1A1
ADAD
8B8B
8A8A
D2D2
BCBC
5353
5454
A6A6
D9D9
4E4E
2C2C
6B6B
9595
1515
BDBD
1010
DBDB
B1B1
1C1C
BABA
2E2E
4B4B
8D8D
1313
BCBC
9090
BBBB
A9A9
1A1A
B1B1
6F6F
0909
3E3E
B0B0
5353
EBEB
0505
3E3E
5555
A6A6
2C2C
CBCB
6161
6A63
B2B2
6969
5A5A
E5E5
2727
4747
5252
D4D4
C6C6
CACA
BABA
5151
9B9B
1D1D
3939
4949
6D6D
5454
D2D2
CDCD
4B4B
2D2D
C4C4
5D5D
1B1B
4848
EDED
3434
CACA
CBCB
4A4A
ADAD
A4A4
E9E9
0F0F
6C6C
1414
FAFA
C1C1
4F4F
ACAC
1919
5A5A
9D9D
3333
4747
5656
A434
DADA
9595
A1A1
ADAD
8B8B
8A8A
D2D2
BCBC
5353
5454
A6A6
D9D9
4E4E
2C2C
6B6B
9595
1515
BDBD
1010
DBDB
B1B1
1C1C
BABA
2E2E
4B4B
8D8D
1313
BCBC
9090
BBBB
A9A9
1A1A
B1B1
6F6F
0909
3E3E
B0B0
5353
EBEB
0505
3E3E
5555
A6A6
2C2C
CBCB
4949
6A63
B2B2
6969
5A5A
E5E5
2727
4747
5252
D4D4
C6C6
CACA
BABA
5151
9B9B
1D1D
3939
4949
6D6D
5454
D2D2
CDCD
4B4B
2D2D
C4C4
5D5D
1B1B
4848
EDED
3434
CACA
CBCB
4A4A
ADAD
A4A4
E9E9
0F0F
6C6C
1414
FAFA
C1C1
4F4F
ACAC
1919
5A5A
9D9D
3333
4C4C
5656
AB3B
2626
9595
AEAE
5252
7474
7575
2D2D
4C4C
6C6C
ABAB
A5A5
1919
B1B1
D3D3
9494
9696
D5D5
4D4D
2C2C
D4D4
B2B2
DCDC
4545
D1D1
B4B4
8E8E
D3D3
4C4C
ACAC
B4B4
AAAA
DADA
4E4E
9090
F6F6
C1C1
4F4F
ACAC
1414
FAFA
C1C1
9595
A9A9
D3D3
3434
D5D5
6A63
4D4D
A9A9
5A5A
1A1A
D8D8
B8B8
ADAD
2B2B
C5C5
3535
4A4A
6D6D
9494
E2E2
C6C6
B9B9
5151
5B5B
D1D1
0D0D
BBBB
1111
CBCB
A2A2
E4E4
B8B8
D1D1
3B3B
C9C9
0B0B
BABA
9191
ABAB
1616
F0F0
9393
EBEB
0505
3E3E
B0B0
5353
E5E5
5A5A
6262
CCCC
BABA
5656
A434
DADA
9595
A1A1
ADAD
8B8B
8A8A
D2D2
BCBC
5353
5454
A6A6
D9D9
4E4E
2C2C
6B6B
9595
1515
BDBD
1010
DBDB
B1B1
1C1C
BABA
2E2E
4B4B
8D8D
1313
BCBC
9090
BBBB
A9A9
1A1A
B1B1
6F6F
0909
3E3E
B0B0
5353
EBEB
0505
3E3E
5555
A6A6
2C2C
CBCB
6565
6A63
4D4D
A9A9
5A5A
1A1A
D8D8
B8B8
ADAD
2B2B
C5C5
3535
4A4A
6D6D
9494
E2E2
C6C6
B9B9
5151
5B5B
D1D1
0D0D
BBBB
1111
CBCB
A2A2
E4E4
B8B8
D1D1
3B3B
C9C9
0B0B
BABA
9191
ABAB
1616
F0F0
9393
EBEB
0505
3E3E
B0B0
5353
E5E5
5A5A
6262
CCCC
B1B1
D6D6
A434
DADA
9595
A1A1
ADAD
8B8B
8A8A
D2D2
BCBC
5353
5454
A6A6
D9D9
4E4E
2C2C
6B6B
9595
1515
BDBD
1010
DBDB
B1B1
1C1C
BABA
2E2E
4B4B
8D8D
1313
BCBC
9090
BBBB
A9A9
1A1A
B1B1
6F6F
0909
3E3E
B0B0
5353
EBEB
0505
3E3E
5555
A6A6
2C2C
CBCB
1919
6A63
B2B2
6969
5A5A
E5E5
2727
4747
5252
D4D4
C6C6
CACA
BABA
5151
9B9B
1D1D
3939
4949
6D6D
5454
D2D2
CDCD
4B4B
2D2D
C4C4
5D5D
1B1B
4848
EDED
3434
CACA
CBCB
4A4A
ADAD
A4A4
E9E9
0F0F
6C6C
1414
FAFA
C1C1
4F4F
ACAC
1919
5A5A
9D9D
3333
4949
5656
AB3B
2626
9595
AEAE
5252
7474
7575
2D2D
4C4C
6C6C
ABAB
A5A5
1919
B1B1
D3D3
9494
9696
D5D5
4D4D
2C2C
D4D4
B2B2
DCDC
4545
D1D1
B4B4
8E8E
D3D3
4C4C
ACAC
B4B4
AAAA
DADA
4E4E
9090
F6F6
C1C1
4F4F
ACAC
1414
FAFA
C1C1
9595
A9A9
D3D3
3434
5555
6A63
B2B2
6969
5A5A
E5E5
2727
4747
5252
D4D4
C6C6
CACA
BABA
5151
9B9B
1D1D
3939
4949
6D6D
5454
D2D2
CDCD
4B4B
2D2D
C4C4
5D5D
1B1B
4848
EDED
3434
CACA
CBCB
4A4A
ADAD
A4A4
E9E9
0F0F
6C6C
1414
FAFA
C1C1
4F4F
ACAC
1919
5A5A
9D9D
3333
4D4D
1616
AB3B
2626
9595
AEAE
5252
7474
7575
2D2D
4C4C
6C6C
ABAB
A5A5
1919
B1B1
D3D3
9494
9696
D5D5
4D4D
2C2C
D4D4
B2B2
DCDC
4545
D1D1
B4B4
8E8E
D3D3
4C4C
ACAC
B4B4
AAAA
DADA
4E4E
9090
F6F6
C1C1
4F4F
ACAC
1414
FAFA
C1C1
9595
A9A9
D3D3
3434
3535
6A63
B2B2
6969
5A5A
E5E5
2727
4747
5252
D4D4
C6C6
CACA
BABA
5151
9B9B
1D1D
3939
4949
6D6D
5454
D2D2
CDCD
4B4B
2D2D
C4C4
5D5D
1B1B
4848
EDED
3434
CACA
CBCB
4A4A
ADAD
A4A4
E9E9
0F0F
6C6C
1414
FAFA
C1C1
4F4F
ACAC
1919
5A5A
9D9D
3333
4B4B
1616
AB3B
2626
9595
AEAE
5252
7474
7575
2D2D
4C4C
6C6C
ABAB
A5A5
1919
B1B1
D3D3
9494
9696
D5D5
4D4D
2C2C
D4D4
B2B2
DCDC
4545
D1D1
B4B4
8E8E
D3D3
4C4C
ACAC
B4B4
AAAA
DADA
4E4E
9090
F6F6
C1C1
4F4F
ACAC
1414
FAFA
C1C1
9595
A9A9
D3D3
3434
7171
6A63
B2B2
6969
5A5A
E5E5
2727
4747
5252
D4D4
C6C6
CACA
BABA
5151
9B9B
1D1D
3939
4949
6D6D
5454
D2D2
CDCD
4B4B
2D2D
C4C4
5D5D
1B1B
4848
EDED
3434
CACA
CBCB
4A4A
ADAD
A4A4
E9E9
0F0F
6C6C
1414
FAFA
C1C1
4F4F
ACAC
1919
5A5A
9D9D
3333
4545
D6D6
A434
DADA
9595
A1A1
ADAD
8B8B
8A8A
D2D2
BCBC
5353
5454
A6A6
D9D9
4E4E
2C2C
6B6B
9595
1515
BDBD
1010
DBDB
B1B1
1C1C
BABA
2E2E
4B4B
8D8D
1313
BCBC
9090
BBBB
A9A9
1A1A
B1B1
6F6F
0909
3E3E
B0B0
5353
EBEB
0505
3E3E
5555
A6A6
2C2C
CBCB
9191
6A63
B2B2
6969
5A5A
E5E5
2727
4747
5252
D4D4
C6C6
CACA
BABA
5151
9B9B
1D1D
3939
4949
6D6D
5454
D2D2
CDCD
4B4B
2D2D
C4C4
5D5D
1B1B
4848
EDED
3434
CACA
CBCB
4A4A
ADAD
A4A4
E9E9
0F0F
6C6C
1414
FAFA
C1C1
4F4F
ACAC
1919
5A5A
9D9D
3333
4848
D6D6
AB3B
2626
9595
AEAE
5252
7474
7575
2D2D
4C4C
6C6C
ABAB
A5A5
1919
B1B1
D3D3
9494
9696
D5D5
4D4D
2C2C
D4D4
B2B2
DCDC
4545
D1D1
B4B4
8E8E
D3D3
4C4C
ACAC
B4B4
AAAA
DADA
4E4E
9090
F6F6
C1C1
4F4F
ACAC
1414
FAFA
C1C1
9595
A9A9
D3D3
3434
4D4D
6A63
B2B2
6969
5A5A
E5E5
2727
4747
5252
D4D4
C6C6
CACA
BABA
5151
9B9B
1D1D
3939
4949
6D6D
5454
D2D2
CDCD
4B4B
2D2D
C4C4
5D5D
1B1B
4848
EDED
3434
CACA
CBCB
4A4A
ADAD
A4A4
E9E9
0F0F
6C6C
1414
FAFA
C1C1
4F4F
ACAC
1919
5A5A
9D9D
3333
4C4C
9696
AB3B
2626
9595
AEAE
5252
7474
7575
2D2D
4C4C
6C6C
ABAB
A5A5
1919
B1B1
D3D3
9494
9696
D5D5
4D4D
2C2C
D4D4
B2B2
DCDC
4545
D1D1
B4B4
8E8E
D3D3
4C4C
ACAC
B4B4
AAAA
DADA
4E4E
9090
F6F6
C1C1
4F4F
ACAC
1414
FAFA
C1C1
9595
A9A9
D3D3
3434
2D2D
6A63
B2B2
6969
5A5A
E5E5
2727
4747
5252
D4D4
C6C6
CACA
BABA
5151
9B9B
1D1D
3939
4949
6D6D
5454
D2D2
CDCD
4B4B
2D2D
C4C4
5D5D
1B1B
4848
EDED
3434
CACA
CBCB
4A4A
ADAD
A4A4
E9E9
0F0F
6C6C
1414
FAFA
C1C1
4F4F
ACAC
1919
5A5A
9D9D
3333
4A4A
9696
AB3B
2626
9595
AEAE
5252
7474
7575
2D2D
4C4C
6C6C
ABAB
A5A5
1919
B1B1
D3D3
9494
9696
D5D5
4D4D
2C2C
D4D4
B2B2
DCDC
4545
D1D1
B4B4
8E8E
D3D3
4C4C
ACAC
B4B4
AAAA
DADA
4E4E
9090
F6F6
C1C1
4F4F
ACAC
1414
FAFA
C1C1
4F4F
ACAC
1414
FAFA
C1C1
4F4F
ACAC
1414
FAFA
C1C1
4F4F
ACAC
1414
FAFA
C1C1
4F4F
ACAC
1414
FAFA
C1C1
4F4F
ACAC
1414
FAFA
C1C1
4F4F
ACAC
1414
FAFA
C1C1
4F4F
ACAC
1414
FAFA
C1C1
4F4F
ACAC
1414
FAFA
C1C1
4F4F
ACAC
1414
FAFA
C1C1
4F4F
ACAC
1414
FAFA
C1C1
4F4F
ACAC
1414
FAFA
C1C1
4F4F
ACAC
1414
FAFA
C1C1
4F4F
ACAC
1414
FAFA
C1C1
4F4F
ACAC
1414
FAFA
C1C1
4F4F
ACAC
1414
FAFA
C1C1
4F4F
ACAC
1414
FAFA
C1C1
4F4F
ACAC
1414
FAFA
C1C1
4F4F
ACAC
1414
FAFA
C1C1
4F4F
ACAC
1414
FAFA
C1C1
4F4F
ACAC
1414
FAFA
C1C1
4F4F
ACAC
1414
FAFA
C1C1
4F4F
ACAC
1414
FAFA
C1C1
4F4F
ACAC
1414
FAFA
C1C1
4F4F
ACAC
1414
FAFA
C1C1
4F4F
ACAC
1414
FAFA
C1C1
4F4F
ACAC
1414
FAFA
C1C1
4F4F
ACAC
1414
FAFA
C1C1
4F4F
ACAC
1414
FAFA
C1C1
4F4F
ACAC
1414
FAFA
C1C1
4F4F
ACAC
1414
FAFA
C1C1
4F4F
ACAC
1414
FAFA
C1C1
4F4F
ACAC
1414
FAFA
C1C1
4F4F
ACAC
1414
FAFA
C1C1
4F4F
ACAC
1414
FAFA
C1C1
4F4F
ACAC
1414
FAFA
C1C1
4F4F
ACAC
1414
FAFA
C1C1
4F4F
ACAC
1414
FAFA
C1C1
4F4F
ACAC
1414
FAFA
C1C1
4F4F
ACAC
1414
FAFA
C1C1
4F4F
ACAC
1414
FAFA
C1C1
4F4F
ACAC
1414
FAFA
C1C1
4F4F
ACAC
1414
FAFA
C1C1
4F4F
ACAC
1414
FAFA
C1C1
4F4F
ACAC
1414
FAFA
C1C1
4F4F
ACAC
1414
FAFA
C1C1
4F4F
ACAC
1414
FAFA
C1C1
4F4F
ACAC
1414
FAFA
C1C1
4F4F
ACAC
1414
FAFA
C1C1
4F4F
ACAC
1414
FAFA
C1C1
4F4F
ACAC
1414
FAFA
C1C1
4F4F
ACAC
1414
FAFA
C1C1
4F4F
ACAC
1414
FAFA
C1C1
4F4F
ACAC
1414
FAFA
C1C1
4F4F
ACAC
1414
FAFA
C1C1
4F4F
ACAC
1414
FAFA
C1C1
4F4F
ACAC
1414
FAFA
C1C1
4F4F
ACAC
1414
FAFA
C1C1
4F4F
ACAC
1414
FAFA
C1C1
4F4F
ACAC
1414
FAFA
C1C1
4F4F
ACAC
1414
FAFA
C1C1
4F4F
ACAC
1414
FAFA
C1C1
4F4F
ACAC
1414
FAFA
C1C1
4F4F
ACAC
1414
FAFA
C1C1
4F4F
ACAC
1414
FAFA
C1C1
4F4F
ACAC
1414
FAFA
C1C1
4F4F
ACAC
1414
FAFA
C1C1
4F4F
ACAC
1414
FAFA
C1C1
4F4F
ACAC
1414
FAFA
C1C1
4F4F
ACAC
1414
FAFA
C1C1
4F4F
ACAC
1414
FAFA
C1C1
4F4F
ACAC
1414
FAFA
C1C1
4F4F
ACAC
1414
FAFA
C1C1
4F4F
ACAC
1414
FAFA
C1C1
4F4F
ACAC
1414
FAFA
C1C1
4F4F
ACAC
1414
FAFA
C1C1
4F4F
ACAC
1414
FAFA
C1C1
4F4F
ACAC
1414
FAFA
C1C1
4F4F
ACAC
1414
FAFA
C1C1
4F4F
ACAC
1414
FAFA
C1C1
4F4F
ACAC
1414
FAFA
C1C1
4F4F
ACAC
1414
FAFA
C1C1
4F4F
ACAC
1414
FAFA
C1C1
4F4F
ACAC
1414
FAFA
C1C1
4F4F
ACAC
1414
FAFA
C1C1
4F4F
ACAC
1414
FAFA
C1C1
4F4F
ACAC
1414
FAFA
C1C1
4F4F
ACAC
1414
FAFA
C1C1
4F4F
ACAC
1414
FAFA
C1C1
4F4F
ACAC
1414
FAFA
C1C1
4F4F
ACAC
1414
FAFA
C1C1
4F4F
ACAC
1414
FAFA
C1C1
4F4F
ACAC
1414
FAFA
C1C1
4F4F
ACAC
1414
FAFA
C1C1
4F4F
ACAC
1414
FAFA
C1C1
4F4F
ACAC
1414
FAFA
C1C1
4F4F
ACAC
1414
FAFA
C1C1
4F4F
ACAC
1414
FAFA
C1C1
4F4F
ACAC
1414
FAFA
C1C1
4F4F
ACAC
1414
FAFA
C1C1
4F4F
ACAC
1414
FAFA
C1C1
4F4F
ACAC
1414
FAFA
C1C1
4F4F
ACAC
1414
FAFA
C1C1
4F4F
ACAC
1414
FAFA
C1C1
4F4F
ACAC
1414
FAFA
C1C1
4F4F
ACAC
1414
FAFA
C1C1
4F4F
ACAC
1414
FAFA
C1C1
4F4F
ACAC
1414
FAFA
C1C1
4F4F
ACAC
1414
FAFA
C1C1
4F4F
ACAC
1414
FAFA
C1C1
4F4F
ACAC
1414
FAFA
C1C1
4F4F
ACAC
1414
FAFA
C1C1
4F4F
ACAC
1414
FAFA
C1C1
4F4F
ACAC
1414
FAFA
C1C1
4F4F
ACAC
1414
FAFA
C1C1
4F4F
ACAC
1414
FAFA
C1C1
4F4F
ACAC
1414
FAFA
C1C1
4F4F
ACAC
1414
FAFA
C1C1
4F4F
ACAC
1414
FAFA
C1C1
4F4F
ACAC
1414
FAFA
C1C1
4F4F
ACAC
1414
FAFA
C1C1
4F4F
ACAC
1414
FAFA
C1C1
4F4F
ACAC
1414
FAFA
C1C1
4F4F
ACAC
1414
FAFA
C1C1
4F4F
ACAC
1414
FAFA
C1C1
4F4F
ACAC
1414
FAFA
C1C1
4F4F
ACAC
1414
FAFA
C1C1
4F4F
ACAC
1414
FAFA
C1C1
4F4F
ACAC
1414
FAFA
C1C1
4F4F
ACAC
1414
FAFA
C1C1
4F4F
ACAC
1414
FAFA
C1C1
4F4F
ACAC
1414
FAFA
C1C1
4F4F
ACAC
1414
FAFA
C1C1
4F4F
ACAC
1414
FAFA
C1C1
4F4F
ACAC
1414
FAFA
C1C1
4F4F
ACAC
1414
FAFA
C1C1
4F4F
ACAC
1414
FAFA
C1C1
4F4F
ACAC
1414
FAFA
C1C1
4F4F
ACAC
1414
FAFA
C1C1
4F4F
ACAC
1414
FAFA
C1C1
4F4F
ACAC
1414
FAFA
C1C1
4F4F
ACAC
1414
FAFA
C1C1
4F4F
ACAC
1414
FAFA
C1C1
4F4F
ACAC
1414
FAFA
C1C1
4F4F
ACAC
1414
FAFA
C1C1
4F4F
ACAC
1414
FAFA
C1C1
4F4F
ACAC
1414
FAFA
C1C1
4F4F
ACAC
1414
FAFA
C1C1
4F4F
ACAC
1414
FAFA
C1C1
4F4F
ACAC
1414
FAFA
C1C1
4F4F
ACAC
1414
FAFA
C1C1
4F4F
ACAC
1414
FAFA
C1C1
4F4F
ACAC
1414
FAFA
C1C1
4F4F
ACAC
1414
FAFA
C1C1
4F4F
ACAC
1414
FAFA
C1C1
4F4F
ACAC
1414
FAFA
C1C1
4F4F
ACAC
1414
FAFA
C1C1
4F4F
ACAC
1414
FAFA
C1C1
4F4F
ACAC
1414
FAFA
C1C1
4F4F
ACAC
1414
FAFA
C1C1
4F4F
ACAC
1414
FAFA
C1C1
4F4F
ACAC
1414
FAFA
C1C1
4F4F
ACAC
1414
FAFA
C1C1
4F4F
ACAC
1414
FAFA
C1C1
4F4F
ACAC
1414
FAFA
C1C1
4F4F
ACAC
1414
FAFA
C1C1
4F4F
ACAC
1414
FAFA
C1C1
4F4F
ACAC
1414
FAFA
C1C1
4F4F
ACAC
1414
FAFA
C1C1
4F4F
ACAC
1414
FAFA
C1C1
4F4F
ACAC
1414
FAFA
C1C1
4F4F
ACAC
1414
FAFA
C1C1
4F4F
ACAC
1414
FAFA
C1C1
4F4F
ACAC
1414
FAFA
C1C1
4F4F
ACAC
1414
FAFA
C1C1
4F4F
ACAC
1414
FAFA
C1C1
4F4F
ACAC
1414
FAFA
C1C1
4F4F
ACAC
1414
FAFA
C1C1
4F4F
ACAC
1414
FAFA
C1C1
4F4F
ACAC
1414
FAFA
C1C1
4F4F
ACAC
1414
FAFA
C1C1
4F4F
ACAC
1414
FAFA
C1C1
4F4F
ACAC
1414
FAFA
C1C1
4F4F
ACAC
1414
FAFA
C1C1
4F4F
ACAC
1414
FAFA
C1C1
4F4F
ACAC
1414
FAFA
C1C1
4F4F
ACAC
1414
FAFA
C1C1
4F4F
ACAC
1414
FAFA
C1C1
4F4F
ACAC
1414
FAFA
C1C1
4F4F
ACAC
1414
FAFA
C1C1
4F4F
ACAC
1414
FAFA
C1C1
4F4F
ACAC
1414
FAFA
C1C1
4F4F
ACAC
1414
FAFA
C1C1
4F4F
ACAC
1414
FAFA
C1C1
4F4F
ACAC
1414
FAFA
C1C1
4F4F
ACAC
1414
FAFA
C1C1
4F4F
ACAC
1414
FAFA
C1C1
4F4F
ACAC
1414
FAFA
C1C1
4F4F
ACAC
1414
FAFA
C1C1
4F4F
ACAC
1414
FAFA
C1C1
4F4F
ACAC
1414
FAFA
C1C1
4F4F
ACAC
1414
FAFA
C1C1
4F4F
ACAC
1414
FAFA
C1C1
4F4F
ACAC
1414
FAFA
C1C1
4F4F
ACAC
1414
FAFA
C1C1
4F4F
ACAC
1414
FAFA
C1C1
4F4F
ACAC
1414
FAFA
C1C1
4F4F
ACAC
1414
FAFA
C1C1
4F4F
ACAC
1414
FAFA
C1C1
4F4F
ACAC
1414
FAFA
C1C1
4F4F
ACAC
1414
FAFA
C1C1
4F4F
ACAC
1414
FAFA
C1C1
4F4F
ACAC
1414
FAFA
C1C1
4F4F
ACAC
1414
FAFA
C1C1
4F4F
ACAC
1414
FAFA
C1C1
4F4F
ACAC
1414
FAFA
C1C1
4F4F
ACAC
1414
FAFA
C1C1
4F4F
ACAC
1414
FAFA
C1C1
4F4F
ACAC
1414
FAFA
C1C1
4F4F
ACAC
1414
FAFA
C1C1
4F4F
ACAC
1414
FAFA
C1C1
4F4F
ACAC
1414
FAFA
C1C1
4F4F
ACAC
1414
FAFA
C1C1
4F4F
ACAC
1414
FAFA
C1C1
4F4F
ACAC
1414
FAFA
C1C1
4F4F
ACAC
1414
FAFA
C1C1
4F4F
ACAC
1414
FAFA
C1C1
4F4F
ACAC
1414
FAFA
C1C1
4F4F
ACAC
1414
FAFA
C1C1
4F4F
ACAC
1414
FAFA
C1C1
4F4F
ACAC
1414
FAFA
C1C1
4F4F
ACAC
1414
FAFA
C1C1
4F4F
ACAC
1414
FAFA
C1C1
4F4F
ACAC
1414
FAFA
C1C1
4F4F
ACAC
1414
FAFA
C1C1
4F4F
ACAC
1414
FAFA
C1C1
4F4F
ACAC
1414
FAFA
C1C1
4F4F
ACAC
1414
FAFA
C1C1
4F4F
ACAC
1414
FAFA
C1C1
4F4F
ACAC
1414
FAFA
C1C1
4F4F
ACAC
1414
FAFA
C1C1
4F4F
ACAC
1414
FAFA
C1C1
4F4F
ACAC
1414
FAFA
C1C1
4F4F
ACAC
1414
FAFA
C1C1
4F4F
ACAC
1414
FAFA
C1C1
4F4F
ACAC
1414
FAFA
C1C1
4F4F
ACAC
1414
FAFA
C1C1
4F4F
ACAC
1414
FAFA
C1C1
4F4F
ACAC
1414
FAFA
C1C1
4F4F
ACAC
1414
FAFA
C1C1
4F4F
ACAC
1414
FAFA
C1C1
4F4F
ACAC
1414
FAFA
C1C1
4F4F
ACAC
1414
FAFA
C1C1
4F4F
ACAC
1414
FAFA
C1C1
4F4F
ACAC
1414
FAFA
C1C1
4F4F
ACAC
1414
FAFA
C1C1
4F4F
ACAC
1414
FAFA
C1C1
4F4F
ACAC
1414
FAFA
C1C1
4F4F
ACAC
1414
FAFA
C1C1
4F4F
ACAC
1414
FAFA
C1C1
4F4F
ACAC
1414
FAFA
C1C1
4F4F
ACAC
1414
FAFA
C1C1
4F4F
ACAC
1414
FAFA
C1C1
4F4F
ACAC
1414
FAFA
C1C1
4F4F
ACAC
1414
FAFA
C1C1
4F4F
ACAC
1414
FAFA
C1C1
4F4F
ACAC
1414
FAFA
C1C1
4F4F
ACAC
1414
FAFA
C1C1
4F4F
ACAC
1414
FAFA
C1C1
4F4F
ACAC
1414
FAFA
C1C1
4F4F
ACAC
1414
FAFA
C1C1
4F4F
ACAC
1414
FAFA
C1C1
4F4F
ACAC
1414
FAFA
C1C1
4F4F
ACAC
1414
FAFA
C1C1
4F4F
ACAC
1414
FAFA
C1C1
4F4F
ACAC
1414
FAFA
C1C1
4F4F
ACAC
1414
FAFA
C1C1
4F4F
ACAC
1414
FAFA
C1C1
4F4F
ACAC
1414
FAFA
C1C1
4F4F
ACAC
1414
FAFA
C1C1
4F4F
ACAC
1414
FAFA
C1C1
4F4F
ACAC
1414
FAFA
C1C1
4F4F
ACAC
1414
FAFA
C1C1
4F4F
ACAC
1414
FAFA
C1C1
4F4F
ACAC
1414
FAFA
C1C1
4F4F
ACAC
1414
FAFA
C1C1
4F4F
ACAC
1414
FAFA
C1C1
4F4F
ACAC
1414
FAFA
C1C1
4F4F
ACAC
1414
FAFA
C1C1
4F4F
ACAC
1414
FAFA
C1C1
4F4F
ACAC
1414
FAFA
C1C1
4F4F
ACAC
1414
FAFA
C1C1
4F4F
ACAC
1414
FAFA
C1C1
4F4F
ACAC
1414
FAFA
C1C1
4F4F
ACAC
1414
FAFA
C1C1
4F4F
ACAC
1414
FAFA
C1C1
4F4F
ACAC
1414
FAFA
C1C1
4F4F
ACAC
1414
FAFA
C1C1
4F4F
ACAC
1414
FAFA
C1C1
4F4F
ACAC
1414
FAFA
C1C1
4F4F
ACAC
1414
FAFA
C1C1
4F4F
ACAC
1414
FAFA
C1C1
4F4F
ACAC
1414
FAFA
C1C1
4F4F
ACAC
1414
FAFA
C1C1
4F4F
ACAC
1414
FAFA
C1C1
4F4F
ACAC
1414
FAFA
C1C1
4F4F
ACAC
1414
FAFA
C1C1
4F4F
ACAC
1414
FAFA
C1C1
4F4F
ACAC
1414
FAFA
C1C1
4F4F
ACAC
1414
FAFA
C1C1
4F4F
ACAC
1414
FAFA
C1C1
4F4F
ACAC
1414
FAFA
C1C1
4F4F
ACAC
1414
FAFA
C1C1
4F4F
ACAC
1414
FAFA
C1C1
4F4F
ACAC
1414
FAFA
C1C1
4F4F
ACAC
1414
FAFA
C1C1
4F4F
ACAC
1414
FAFA
C1C1
4F4F
ACAC
1414
FAFA
C1C1
4F4F
ACAC
1414
FAFA
C1C1
4F4F
ACAC
1414
FAFA
C1C1
4F4F
ACAC
1414
FAFA
C1C1
4F4F
ACAC
1414
FAFA
C1C1
4F4F
ACAC
1414
FAFA
C1C1
4F4F
ACAC
1414
FAFA
C1C1
4F4F
ACAC
1414
FAFA
C1C1
4F4F
ACAC
1414
FAFA
C1C1
4F4F
ACAC
1414
FAFA
C1C1
4F4F
ACAC
1414
FAFA
C1C1
4F4F
ACAC
1414
FAFA
C1C1
4F4F
ACAC
1414
FAFA
C1C1
4F4F
ACAC
1414
FAFA
C1C1
4F4F
ACAC
1414
FAFA
C1C1
4F4F
ACAC
1414
FAFA
C1C1
4F4F
ACAC
1414
FAFA
C1C1
4F4F
ACAC
1414
FAFA
C1C1
4F4F
ACAC
1414
FAFA
C1C1
4F4F
ACAC
1414
FAFA
C1C1
4F4F
ACAC
1414
FAFA
C1C1
4F4F
ACAC
1414
FAFA
C1C1
4F4F
ACAC
1414
FAFA
C1C1
4F4F
ACAC
1414
FAFA
C1C1
4F4F
ACAC
1414
FAFA
C1C1
4F4F
ACAC
1414
FAFA
C1C1
4F4F
ACAC
1414
FAFA
C1C1
4F4F
ACAC
1414
FAFA
C1C1
4F4F
ACAC
1414
FAFA
C1C1
4F4F
ACAC
1414
FAFA
C1C1
4F4F
ACAC
1414
FAFA
C1C1
4F4F
ACAC
1414
FAFA
C1C1
4F4F
ACAC
1414
FAFA
C1C1
4F4F
ACAC
1414
FAFA
C1C1
4F4F
ACAC
1414
FAFA
C1C1
4F4F
ACAC
1414
FAFA
C1C1
4F4F
ACAC
1414
FAFA
C1C1
4F4F
ACAC
1414
FAFA
C1C1
4F4F
ACAC
1414
FAFA
C1C1
4F4F
ACAC
1414
FAFA
C1C1
4F4F
ACAC
1414
FAFA
C1C1
4F4F
ACAC
1414
FAFA
C1C1
4F4F
ACAC
1414
FAFA
C1C1
4F4F
ACAC
1414
FAFA
C1C1
4F4F
ACAC
1414
FAFA
C1C1
4F4F
ACAC
1414
FAFA
C1C1
4F4F
ACAC
1414
FAFA
C1C1
4F4F
ACAC
1414
FAFA
C1C1
4F4F
ACAC
1414
FAFA
C1C1
4F4F
ACAC
1414
FAFA
C1C1
4F4F
ACAC
1414
FAFA
C1C1
4F4F
ACAC
1414
FAFA
C1C1
4F4F
ACAC
1414
FAFA
C1C1
4F4F
ACAC
1414
FAFA
C1C1
4F4F
ACAC
1414
FAFA
C1C1
4F4F
ACAC
1414
FAFA
C1C1
4F4F
ACAC
1414
FAFA
C1C1
4F4F
ACAC
1414
FAFA
C1C1
4F4F
ACAC
1414
FAFA
C1C1
4F4F
ACAC
1414
FAFA
C1C1
4F4F
ACAC
1414
FAFA
C1C1
4F4F
ACAC
1414
FAFA
C1C1
4F4F
ACAC
1414
FAFA
C1C1
4F4F
ACAC
1414
FAFA
C1C1
4F4F
ACAC
1414
FAFA
C1C1
4F4F
ACAC
1414
FAFA
C1C1
4F4F
ACAC
1414
FAFA
C1C1
4F4F
ACAC
1414
FAFA
C1C1
4F4F
ACAC
1414
FAFA
C1C1
4F4F
ACAC
1414
FAFA
C1C1
4F4F
ACAC
1414
FAFA
C1C1
4F4F
ACAC
1414
FAFA
C1C1
4F4F
ACAC
1414
FAFA
C1C1
4F4F
ACAC
1414
FAFA
C1C1
4F4F
ACAC
1414
FAFA
C1C1
4F4F
ACAC
1414
FAFA
C1C1
4F4F
ACAC
1414
FAFA
C1C1
4F4F
ACAC
1414
FAFA
C1C1
4F4F
ACAC
1414
FAFA
C1C1
4F4F
ACAC
1414
FAFA
C1C1
4F4F
ACAC
1414
FAFA
C1C1
4F4F
ACAC
1414
FAFA
C1C1
4F4F
ACAC
1414
FAFA
C1C1
4F4F
ACAC
1414
FAFA
C1C1
4F4F
ACAC
1414
FAFA
C1C1
4F4F
ACAC
1414
FAFA
C1C1
4F4F
ACAC
1414
FAFA
C1C1
4F4F
ACAC
1414
FAFA
C1C1
4F4F
ACAC
1414
FAFA
C1C1
4F4F
ACAC
1414
FAFA
C1C1
4F4F
ACAC
1414
FAFA
C1C1
4F4F
ACAC
1414
FAFA
C1C1
4F4F
ACAC
1414
FAFA
C1C1
4F4F
ACAC
1414
FAFA
C1C1
4F4F
ACAC
1414
FAFA
C1C1
4F4F
ACAC
1414
FAFA
C1C1
4F4F
ACAC
1414
FAFA
C1C1
4F4F
ACAC
1414
FAFA
C1C1
4F4F
ACAC
1414
FAFA
C1C1
4F4F
ACAC
1414
FAFA
C1C1
4F4F
ACAC
1414
FAFA
C1C1
4F4F
ACAC
1414
FAFA
C1C1
4F4F
ACAC
1414
FAFA
C1C1
4F4F
ACAC
1414
FAFA
C1C1
4F4F
ACAC
1414
FAFA
C1C1
4F4F
ACAC
1414
FAFA
C1C1
4F4F
ACAC
1414
FAFA
C1C1
4F4F
ACAC
1414
FAFA
C1C1
4F4F
ACAC
1414
FAFA
C1C1
4F4F
ACAC
1414
FAFA
C1C1
4F4F
ACAC
1414
FAFA
C1C1
4F4F
ACAC
1414
FAFA
C1C1
4F4F
ACAC
1414
FAFA
C1C1
4F4F
ACAC
1414
FAFA
C1C1
4F4F
ACAC
1414
FAFA
C1C1
4F4F
ACAC
1414
FAFA
C1C1
4F4F
ACAC
1414
FAFA
C1C1
4F4F
ACAC
1414
FAFA
C1C1
4F4F
ACAC
1414
FAFA
C1C1
4F4F
ACAC
1414
FAFA
C1C1
4F4F
ACAC
1414
FAFA
C1C1
4F4F
ACAC
1414
FAFA
C1C1
4F4F
ACAC
1414
FAFA
C1C1
4F4F
ACAC
1414
FAFA
C1C1
4F4F
ACAC
1414
FAFA
C1C1
4F4F
ACAC
1414
FAFA
C1C1
4F4F
ACAC
1414
FAFA
C1C1
4F4F
ACAC
1414
FAFA
C1C1
4F4F
ACAC
1414
FAFA
C1C1
4F4F
ACAC
1414
FAFA
C1C1
4F4F
ACAC
1414
FAFA
C1C1
4F4F
ACAC
1414
FAFA
C1C1
4F4F
ACAC
1414
FAFA
C1C1
4F4F
ACAC
1414
FAFA
C1C1
4F4F
ACAC
1414
FAFA
C1C1
4F4F
ACAC
1414
FAFA
C1C1
4F4F
ACAC
1414
FAFA
C1C1
4F4F
ACAC
1414
FAFA
C1C1
4F4F
ACAC
1414
FAFA
C1C1
4F4F
ACAC
1414
FAFA
C1C1
4F4F
ACAC
1414
FAFA
C1C1
4F4F
ACAC
1414
FAFA
C1C1
4F4F
ACAC
1414
FAFA
C1C1
4F4F
ACAC
1414
FAFA
C1C1
4F4F
ACAC
1414
FAFA
C1C1
4F4F
ACAC
1414
FAFA
C1C1
4F4F
ACAC
1414
FAFA
C1C1
4F4F
ACAC
1414
FAFA
C1C1
4F4F
ACAC
1414
FAFA
C1C1
4F4F
ACAC
1414
FAFA
C1C1
4F4F
ACAC
1414
FAFA
C1C1
4F4F
ACAC
1414
FAFA
C1C1
4F4F
ACAC
1414
FAFA
C1C1
4F4F
ACAC
1414
FAFA
C1C1
4F4F
ACAC
1414
FAFA
C1C1
4F4F
ACAC
1414
FAFA
C1C1
4F4F
ACAC
1414
FAFA
C1C1
4F4F
ACAC
1414
FAFA
C1C1
4F4F
ACAC
1414
FAFA
C1C1
4F4F
ACAC
1414
FAFA
C1C1
4F4F
ACAC
1414
FAFA
C1C1
4F4F
ACAC
1414
FAFA
C1C1
4F4F
ACAC
1414
FAFA
C1C1
4F4F
ACAC
1414
FAFA
C1C1
4F4F
ACAC
1414
FAFA
C1C1
4F4F
ACAC
1414
FAFA
C1C1
4F4F
ACAC
1414
FAFA
C1C1
4F4F
ACAC
1414
FAFA
C1C1
4F4F
ACAC
1414
FAFA
C1C1
4F4F
ACAC
1414
FAFA
C1C1
4F4F
ACAC
1414
FAFA
C1C1
4F4F
ACAC
1414
FAFA
C1C1
4F4F
ACAC
1414
FAFA
C1C1
4F4F
ACAC
1414
FAFA
C1C1
4F4F
ACAC
1414
FAFA
C1C1
4F4F
ACAC
1414
FAFA
C1C1
4F4F
ACAC
1414
FAFA
C1C1
4F4F
ACAC
1414
FAFA
C1C1
4F4F
ACAC
1414
FAFA
C1C1
4F4F
ACAC
1414
FAFA
C1C1
4F4F
ACAC
1414
FAFA
C1C1
4F4F
ACAC
1414
FAFA
C1C1
4F4F
ACAC
1414
FAFA
C1C1
4F4F
ACAC
1414
FAFA
C1C1
4F4F
ACAC
1414
FAFA
C1C1
4F4F
ACAC
1414
FAFA
C1C1
4F4F
ACAC
1414
FAFA
C1C1
4F4F
ACAC
1414
FAFA
C1C1
4F4F
ACAC
1414
FAFA
C1C1
4F4F
ACAC
1414
FAFA
C1C1
4F4F
ACAC
1414
FAFA
C1C1
4F4F
ACAC
1414
FAFA
C1C1
4F4F
ACAC
1414
FAFA
C1C1
4F4F
ACAC
1414
FAFA
C1C1
4F4F
ACAC
1414
FAFA
C1C1
4F4F
ACAC
1414
FAFA
C1C1
4F4F
ACAC
1414
FAFA
C1C1
4F4F
ACAC
1414
FAFA
C1C1
4F4F
ACAC
1414
FAFA
C1C1
4F4F
ACAC
1414
FAFA
C1C1
4F4F
ACAC
1414
FAFA
C1C1
4F4F
ACAC
1414
FAFA
C1C1
4F4F
ACAC
1414
FAFA
C1C1
4F4F
ACAC
1414
FAFA
C1C1
4F4F
ACAC
1414
FAFA
C1C1
4F4F
ACAC
1414
FAFA
C1C1
4F4F
ACAC
1414
FAFA
C1C1
4F4F
ACAC
1414
FAFA
C1C1
4F4F
ACAC
1414
FAFA
C1C1
4F4F
ACAC
1414
FAFA
C1C1
4F4F
ACAC
1414
FAFA
C1C1
4F4F
ACAC
1414
FAFA
C1C1
4F4F
ACAC
1414
FAFA
C1C1
4F4F
ACAC
1414
FAFA
C1C1
4F4F
ACAC
1414
FAFA
C1C1
4F4F
ACAC
1414
FAFA
C1C1
4F4F
ACAC
1414
FAFA
C1C1
4F4F
ACAC
1414
FAFA
C1C1
4F4F
ACAC
1414
FAFA
C1C1
4F4F
ACAC
1414
FAFA
C1C1
4F4F
ACAC
1414
FAFA
C1C1
4F4F
ACAC
1414
FAFA
C1C1
4F4F
ACAC
1414
FAFA
C1C1
4F4F
ACAC
1414
FAFA
C1C1
4F4F
ACAC
1414
FAFA
C1C1
4F4F
ACAC
1414
FAFA
C1C1
4F4F
ACAC
1414
FAFA
C1C1
4F4F
ACAC
1414
FAFA
C1C1
4F4F
ACAC
1414
FAFA
C1C1
4F4F
ACAC
1414
FAFA
C1C1
4F4F
ACAC
1414
FAFA
C1C1
4F4F
ACAC
1414
FAFA
C1C1
4F4F
ACAC
1414
FAFA
C1C1
4F4F
ACAC
1414
FAFA
C1C1
4F4F
ACAC
1414
FAFA
C1C1
4F4F
ACAC
1414
FAFA
C1C1
4F4F
ACAC
1414
FAFA
C1C1
4F4F
ACAC
1414
FAFA
C1C1
4F4F
ACAC
1414
FAFA
C1C1
4F4F
ACAC
1414
FAFA
C1C1
4F4F
ACAC
1414
FAFA
C1C1
4F4F
ACAC
1414
FAFA
C1C1
4F4F
ACAC
1414
FAFA
C1C1
4F4F
ACAC
1414
FAFA
C1C1
4F4F
ACAC
1414
FAFA
C1C1
4F4F
ACAC
1414
FAFA
C1C1
4F4F
ACAC
1414
FAFA
C1C1
4F4F
ACAC
1414
FAFA
C1C1
4F4F
ACAC
1414
FAFA
C1C1
4F4F
ACAC
1414
FAFA
C1C1
4F4F
ACAC
1414
FAFA
C1C1
4F4F
ACAC
1414
FAFA
C1C1
4F4F
ACAC
1414
FAFA
C1C1
4F4F
ACAC
1414
FAFA
C1C1
4F4F
ACAC
1414
FAFA
C1C1
4F4F
ACAC
1414
FAFA
C1C1
4F4F
ACAC
1414
FAFA
C1C1
4F4F
ACAC
1414
FAFA
C1C1
4F4F
ACAC
1414
FAFA
C1C1
4F4F
ACAC
1414
FAFA
C1C1
4F4F
ACAC
1414
FAFA
C1C1
4F4F
ACAC
1414
FAFA
C1C1
4F4F
ACAC
1414
FAFA
C1C1
4F4F
ACAC
1414
FAFA
C1C1
4F4F
ACAC
1414
FAFA
C1C1
4F4F
ACAC
1414
FAFA
C1C1
4F4F
ACAC
1414
FAFA
C1C1
4F4F
ACAC
1414
FAFA
C1C1
4F4F
ACAC
1414
FAFA
C1C1
4F4F
ACAC
1414
FAFA
C1C1
4F4F
ACAC
1414
FAFA
C1C1
4F4F
ACAC
1414
FAFA
C1C1
4F4F
ACAC
1414
FAFA
C1C1
4F4F
ACAC
1414
FAFA
C1C1
4F4F
ACAC
1414
FAFA
C1C1
4F4F
ACAC
1414
FAFA
C1C1
4F4F
ACAC
1414
FAFA
C1C1
4F4F
ACAC
1414
FAFA
C1C1
4F4F
ACAC
1414
FAFA
C1C1
4F4F
ACAC
1414
FAFA
C1C1
4F4F
ACAC
1414
FAFA
C1C1
4F4F
ACAC
1414
FAFA
C1C1
4F4F
ACAC
1414
FAFA
C1C1
4F4F
ACAC
1414
FAFA
C1C1
4F4F
ACAC
1414
FAFA
C1C1
4F4F
ACAC
1414
FAFA
C1C1
4F4F
ACAC
1414
FAFA
C1C1
4F4F
ACAC
1414
FAFA
C1C1
4F4F
ACAC
1414
FAFA
C1C1
4F4F
ACAC
1414
FAFA
C1C1
4F4F
ACAC
1414
FAFA
C1C1
4F4F
ACAC
1414
FAFA
C1C1
4F4F
ACAC
1414
FAFA
C1C1
4F4F
ACAC
1414
FAFA
C1C1
4F4F
ACAC
1414
FAFA
C1C1
4F4F
ACAC
1414
FAFA
C1C1
4F4F
ACAC
1414
FAFA
C1C1
4F4F
ACAC
1414
FAFA
C1C1
4F4F
ACAC
1414
FAFA
C1C1
4F4F
ACAC
1414
FAFA
C1C1
4F4F
ACAC
1414
FAFA
C1C1
4F4F
ACAC
1414
FAFA
C1C1
4F4F
ACAC
1414
FAFA
C1C1
4F4F
ACAC
1414
FAFA
C1C1
4F4F
ACAC
1414
FAFA
C1C1
4F4F
ACAC
1414
FAFA
C1C1
4F4F
ACAC
1414
FAFA
C1C1
4F4F
ACAC
1414
FAFA
C1C1
4F4F
ACAC
1414
FAFA
C1C1
4F4F
ACAC
1414
FAFA
C1C1
4F4F
ACAC
1414
FAFA
C1C1
4F4F
ACAC
1414
FAFA
C1C1
4F4F
ACAC
1414
FAFA
C1C1
4F4F
ACAC
1414
FAFA
C1C1
4F4F
ACAC
1414
FAFA
C1C1
4F4F
ACAC
1414
FAFA
C1C1
4F4F
ACAC
1414
FAFA
C1C1
4F4F
ACAC
1414
FAFA
C1C1
4F4F
ACAC
1414
FAFA
C1C1
4F4F
ACAC
1414
FAFA
C1C1
4F4F
ACAC
1414
FAFA
C1C1
4F4F
ACAC
1414
FAFA
C1C1
4F4F
ACAC
1414
FAFA
C1C1
4F4F
ACAC
1414
FAFA
C1C1
4F4F
ACAC
1414
FAFA
C1C1
4F4F
ACAC
1414
FAFA
C1C1
4F4F
ACAC
1414
FAFA
C1C1
4F4F
ACAC
1414
FAFA
C1C1
4F4F
ACAC
1414
FAFA
C1C1
4F4F
ACAC
1414
FAFA
C1C1
4F4F
ACAC
1414
FAFA
C1C1
4F4F
ACAC
1414
FAFA
C1C1
4F4F
ACAC
1414
FAFA
C1C1
4F4F
ACAC
1414
FAFA
C1C1
4F4F
ACAC
1414
FAFA
C1C1
4F4F
ACAC
1414
FAFA
C1C1
4F4F
ACAC
1414
FAFA
C1C1
4F4F
ACAC
1414
FAFA
C1C1
4F4F
ACAC
1414
FAFA
C1C1
4F4F
ACAC
1414
FAFA
C1C1
4F4F
ACAC
1414
FAFA
C1C1
4F4F
ACAC
1414
FAFA
C1C1
4F4F
ACAC
1414
FAFA
C1C1
4F4F
ACAC
1414
FAFA
C1C1
4F4F
ACAC
1414
FAFA
C1C1
4F4F
ACAC
1414
FAFA
C1C1
4F4F
ACAC
1414
FAFA
C1C1
4F4F
ACAC
1414
FAFA
C1C1
4F4F
ACAC
1414
FAFA
C1C1
4F4F
ACAC
1414
FAFA
C1C1
4F4F
ACAC
1414
FAFA
C1C1
4F4F
ACAC
1414
FAFA
C1C1
4F4F
ACAC
1414
FAFA
C1C1
4F4F
ACAC
1414
FAFA
C1C1
4F4F
ACAC
1414
FAFA
C1C1
4F4F
ACAC
1414
FAFA
C1C1
4F4F
ACAC
1414
FAFA
C1C1
4F4F
ACAC
1414
FAFA
C1C1
4F4F
ACAC
1414
FAFA
C1C1
4F4F
ACAC
1414
FAFA
C1C1
4F4F
ACAC
1414
FAFA
C1C1
4F4F
ACAC
1414
FAFA
C1C1
4F4F
ACAC
1414
FAFA
C1C1
4F4F
ACAC
1414
FAFA
C1C1
4F4F
ACAC
1414
FAFA
C1C1
4F4F
ACAC
1414
FAFA
C1C1
4F4F
ACAC
1414
FAFA
C1C1
4F4F
ACAC
1414
FAFA
C1C1
4F4F
ACAC
1414
FAFA
C1C1
4F4F
ACAC
1414
FAFA
C1C1
4F4F
ACAC
1414
FAFA
C1C1
4F4F
ACAC
1414
FAFA
C1C1
4F4F
ACAC
1414
FAFA
C1C1
4F4F
ACAC
1414
FAFA
C1C1
4F4F
ACAC
1414
FAFA
C1C1
4F4F
ACAC
1414
FAFA
C1C1
4F4F
ACAC
1414
FAFA
C1C1
4F4F
ACAC
1414
FAFA
C1C1
4F4F
ACAC
1414
FAFA
C1C1
4F4F
ACAC
1414
FAFA
C1C1
4F4F
ACAC
1414
FAFA
C1C1
4F4F
ACAC
1414
FAFA
C1C1
4F4F
ACAC
1414
FAFA
C1C1
4F4F
ACAC
1414
FAFA
C1C1
4F4F
ACAC
1414
FAFA
C1C1
4F4F
ACAC
1414
FAFA
C1C1
4F4F
ACAC
1414
FAFA
C1C1
4F4F
ACAC
1414
FAFA
C1C1
4F4F
ACAC
1414
FAFA
C1C1
4F4F
ACAC
1414
FAFA
C1C1
4F4F
ACAC
1414
FAFA
C1C1
4F4F
ACAC
1414
FAFA
C1C1
4F4F
ACAC
1414
FAFA
C1C1
4F4F
ACAC
1414
FAFA
C1C1
4F4F
ACAC
1414
FAFA
C1C1
4F4F
ACAC
1414
FAFA
C1C1
4F4F
ACAC
1414
FAFA
C1C1
4F4F
ACAC
1414
FAFA
C1C1
4F4F
ACAC
1414
FAFA
C1C1
4F4F
ACAC
1414
FAFA
C1C1
4F4F
ACAC
1414
FAFA
C1C1
4F4F
ACAC
1414
FAFA
C1C1
4F4F
ACAC
1414
FAFA
C1C1
4F4F
ACAC
1414
FAFA
C1C1
4F4F
ACAC
1414
FAFA
C1C1
4F4F
ACAC
1414
FAFA
C1C1
4F4F
ACAC
1414
FAFA
C1C1
4F4F
ACAC
1414
FAFA
C1C1
4F4F
ACAC
1414
FAFA
C1C1
4F4F
ACAC
1414
FAFA
C1C1
4F4F
ACAC
1414
FAFA
C1C1
4F4F
ACAC
1414
FAFA
C1C1
4F4F
ACAC
1414
FAFA
C1C1
4F4F
ACAC
1414
FAFA
C1C1
4F4F
ACAC
1414
FAFA
C1C1
4F4F
ACAC
1414
FAFA
C1C1
4F4F
ACAC
1414
FAFA
C1C1
4F4F
ACAC
1414
FAFA
C1C1
4F4F
ACAC
1414
FAFA
C1C1
4F4F
ACAC
1414
FAFA
C1C1
4F4F
ACAC
1414
FAFA
C1C1
4F4F
ACAC
1414
FAFA
C1C1
4F4F
ACAC
1414
FAFA
C1C1
4F4F
ACAC
1414
FAFA
C1C1
4F4F
ACAC
1414
FAFA
C1C1
4F4F
ACAC
1414
FAFA
C1C1
4F4F
ACAC
1414
FAFA
C1C1
4F4F
ACAC
1414
FAFA
C1C1
4F4F
ACAC
1414
FAFA
C1C1
4F4F
ACAC
1414
FAFA
C1C1
4F4F
ACAC
1414
FAFA
C1C1
4F4F
ACAC
1414
FAFA
C1C1
4F4F
ACAC
1414
FAFA
C1C1
4F4F
ACAC
1414
FAFA
C1C1
4F4F
ACAC
1414
FAFA
C1C1
4F4F
ACAC
1414
FAFA
C1C1
4F4F
ACAC
1414
FAFA
C1C1
4F4F
ACAC
1414
FAFA
C1C1
4F4F
ACAC
1414
FAFA
C1C1
4F4F
ACAC
1414
FAFA
C1C1
4F4F
ACAC
1414
FAFA
C1C1
4F4F
ACAC
1414
FAFA
C1C1
4F4F
ACAC
1414
FAFA
C1C1
4F4F
ACAC
1414
FAFA
C1C1
4F4F
ACAC
1414
FAFA
C1C1
4F4F
ACAC
1414
FAFA
C1C1
4F4F
ACAC
1414
FAFA
C1C1
4F4F
ACAC
1414
FAFA
C1C1
4F4F
ACAC
1414
FAFA
C1C1
4F4F
ACAC
1414
FAFA
C1C1
4F4F
ACAC
1414
FAFA
C1C1
4F4F
ACAC
1414
FAFA
C1C1
4F4F
ACAC
1414
FAFA
C1C1
4F4F
ACAC
1414
FAFA
C1C1
4F4F
ACAC
1414
FAFA
C1C1
4F4F
ACAC
1414
FAFA
C1C1
4F4F
ACAC
1414
FAFA
C1C1
4F4F
ACAC
1414
FAFA
C1C1
4F4F
ACAC
1414
FAFA
C1C1
4F4F
ACAC
1414
FAFA
C1C1
4F4F
ACAC
1414
FAFA
C1C1
4F4F
ACAC
1414
FAFA
C1C1
4F4F
ACAC
1414
FAFA
C1C1
4F4F
ACAC
1414
FAFA
C1C1
4F4F
ACAC
1414
FAFA
C1C1
4F4F
ACAC
1414
FAFA
C1C1
4F4F
ACAC
1414
FAFA
C1C1
4F4F
ACAC
1414
FAFA
C1C1
4F4F
ACAC
1414
FAFA
C1C1
4F4F
ACAC
1414
FAFA
C1C1
4F4F
ACAC
1414
FAFA
C1C1
4F4F
ACAC
1414
FAFA
C1C1
4F4F
ACAC
1414
FAFA
C1C1
4F4F
ACAC
1414
FAFA
C1C1
4F4F
ACAC
1414
FAFA
C1C1
4F4F
ACAC
1414
FAFA
C1C1
4F4F
ACAC
1414
FAFA
C1C1
4F4F
ACAC
1414
FAFA
C1C1
4F4F
ACAC
1414
FAFA
C1C1
4F4F
ACAC
1414
FAFA
C1C1
4F4F
ACAC
1414
FAFA
C1C1
4F4F
ACAC
1414
FAFA
C1C1
4F4F
ACAC
1414
FAFA
C1C1
4F4F
ACAC
1414
FAFA
C1C1
4F4F
ACAC
1414
FAFA
C1C1
4F4F
ACAC
1414
FAFA
C1C1
4F4F
ACAC
1414
FAFA
C1C1
4F4F
ACAC
1414
FAFA
C1C1
4F4F
ACAC
1414
FAFA
C1C1
4F4F
ACAC
1414
FAFA
C1C1
4F4F
ACAC
1414
FAFA
C1C1
4F4F
ACAC
1414
FAFA
C1C1
4F4F
ACAC
1414
FAFA
C1C1
4F4F
ACAC
1414
FAFA
C1C1
4F4F
ACAC
1414
FAFA
C1C1
4F4F
ACAC
1414
FAFA
C1C1
4F4F
ACAC
1414
FAFA
C1C1
4F4F
ACAC
1414
FAFA
C1C1
4F4F
ACAC
1414
FAFA
C1C1
4F4F
ACAC
1414
FAFA
C1C1
4F4F
ACAC
1414
FAFA
C1C1
4F4F
ACAC
1414
FAFA
C1C1
4F4F
ACAC
1414
FAFA
C1C1
4F4F
ACAC
1414
FAFA
C1C1
4F4F
ACAC
1414
FAFA
C1C1
4F4F
ACAC
1414
FAFA
C1C1
4F4F
ACAC
1414
FAFA
C1C1
4F4F
ACAC
1414
FAFA
C1C1
4F4F
ACAC
1414
FAFA
C1C1
4F4F
ACAC
1414
FAFA
C1C1
4F4F
ACAC
1414
FAFA
C1C1
4F4F
ACAC
1414
FAFA
C1C1
4F4F
ACAC
1414
FAFA
C1C1
4F4F
ACAC
1414
FAFA
C1C1
4F4F
ACAC
1414
FAFA
C1C1
4F4F
ACAC
1414
FAFA
C1C1
4F4F
ACAC
1414
FAFA
C1C1
4F4F
ACAC
1414
FAFA
C1C1
4F4F
ACAC
1414
FAFA
C1C1
4F4F
ACAC
1414
FAFA
C1C1
4F4F
ACAC
1414
FAFA
C1C1
4F4F
ACAC
1414
FAFA
C1C1
4F4F
ACAC
1414
FAFA
C1C1
4F4F
ACAC
1414
FAFA
C1C1
4F4F
ACAC
1414
FAFA
C1C1
4F4F
ACAC
1414
FAFA
C1C1
4F4F
ACAC
1414
FAFA
C1C1
4F4F
ACAC
1414
FAFA
C1C1
4F4F
ACAC
1414
FAFA
C1C1
4F4F
ACAC
1414
FAFA
C1C1
4F4F
ACAC
1414
FAFA
C1C1
4F4F
ACAC
1414
FAFA
C1C1
4F4F
ACAC
1414
FAFA
C1C1
4F4F
ACAC
1414
FAFA
C1C1
4F4F
ACAC
1414
FAFA
C1C1
4F4F
ACAC
1414
FAFA
C1C1
4F4F
ACAC
1414
FAFA
C1C1
4F4F
ACAC
1414
FAFA
C1C1
4F4F
ACAC
1414
FAFA
C1C1
4F4F
ACAC
1414
FAFA
C1C1
4F4F
ACAC
1414
FAFA
C1C1
4F4F
ACAC
1414
FAFA
C1C1
4F4F
ACAC
1414
FAFA
C1C1
4F4F
ACAC
1414
FAFA
C1C1
4F4F
ACAC
1414
FAFA
C1C1
4F4F
ACAC
1414
FAFA
C1C1
4F4F
ACAC
1414
FAFA
C1C1
4F4F
ACAC
1414
FAFA
C1C1
4F4F
ACAC
1414
FAFA
C1C1
4F4F
ACAC
1414
FAFA
C1C1
4F4F
ACAC
1414
FAFA
C1C1
4F4F
ACAC
1414
FAFA
C1C1
4F4F
ACAC
1414
FAFA
C1C1
4F4F
ACAC
1414
FAFA
C1C1
4F4F
ACAC
1414
FAFA
C1C1
4F4F
ACAC
1414
FAFA
C1C1
4F4F
ACAC
1414
FAFA
C1C1
4F4F
ACAC
1414
FAFA
C1C1
4F4F
ACAC
1414
FAFA
C1C1
4F4F
ACAC
1414
FAFA
C1C1
4F4F
ACAC
1414
FAFA
C1C1
4F4F
ACAC
1414
FAFA
C1C1
4F4F
ACAC
1414
FAFA
C1C1
4F4F
ACAC
1414
FAFA
C1C1
4F4F
ACAC
1414
FAFA
C1C1
4F4F
ACAC
1414
FAFA
C1C1
4F4F
ACAC
1414
FAFA
C1C1
4F4F
ACAC
1414
FAFA
C1C1
4F4F
ACAC
1414
FAFA
C1C1
4F4F
ACAC
1414
FAFA
C1C1
4F4F
ACAC
1414
FAFA
C1C1
4F4F
ACAC
1414
FAFA
C1C1
4F4F
ACAC
1414
FAFA
C1C1
4F4F
ACAC
1414
FAFA
C1C1
4F4F
ACAC
1414
FAFA
C1C1
4F4F
ACAC
1414
FAFA
C1C1
4F4F
ACAC
1414
FAFA
C1C1
4F4F
ACAC
1414
FAFA
C1C1
4F4F
ACAC
1414
FAFA
C1C1
4F4F
ACAC
1414
FAFA
C1C1
4F4F
ACAC
1414
FAFA
C1C1
4F4F
ACAC
1414
FAFA
C1C1
4F4F
ACAC
1414
FAFA
C1C1
4F4F
ACAC
1414
FAFA
C1C1
4F4F
ACAC
1414
FAFA
C1C1
4F4F
ACAC
1414
FAFA
C1C1
4F4F
ACAC
1414
FAFA
C1C1
4F4F
ACAC
1414
FAFA
C1C1
4F4F
ACAC
1414
FAFA
C1C1
4F4F
ACAC
1414
FAFA
C1C1
4F4F
ACAC
1414
FAFA
C1C1
4F4F
ACAC
1414
FAFA
C1C1
4F4F
ACAC
1414
FAFA
C1C1
4F4F
ACAC
1414
FAFA
C1C1
4F4F
ACAC
1414
FAFA
C1C1
4F4F
ACAC
1414
FAFA
C1C1
4F4F
ACAC
1414
FAFA
C1C1
4F4F
ACAC
1414
FAFA
C1C1
4F4F
ACAC
1414
FAFA
C1C1
4F4F
ACAC
1414
FAFA
C1C1
4F4F
ACAC
1414
FAFA
C1C1
4F4F
ACAC
1414
FAFA
C1C1
4F4F
ACAC
1414
FAFA
C1C1
4F4F
ACAC
1414
FAFA
C1C1
4F4F
ACAC
1414
FAFA
C1C1
4F4F
ACAC
1414
FAFA
C1C1
4F4F
ACAC
1414
FAFA
C1C1
4F4F
ACAC
1414
FAFA
C1C1
4F4F
ACAC
1414
FAFA
C1C1
4F4F
ACAC
1414
FAFA
C1C1
4F4F
ACAC
1414
FAFA
C1C1
4F4F
ACAC
1414
FAFA
C1C1
4F4F
ACAC
1414
FAFA
C1C1
4F4F
ACAC
1414
FAFA
C1C1
4F4F
ACAC
1414
FAFA
C1C1
4F4F
ACAC
1414
FAFA
C1C1
4F4F
ACAC
1414
FAFA
C1C1
4F4F
ACAC
1414
FAFA
C1C1
4F4F
ACAC
1414
FAFA
C1C1
4F4F
ACAC
1414
FAFA
C1C1
4F4F
ACAC
1414
FAFA
C1C1
4F4F
ACAC
1414
FAFA
C1C1
4F4F
ACAC
1414
FAFA
C1C1
4F4F
ACAC
1414
FAFA
C1C1
4F4F
ACAC
1414
FAFA
C1C1
4F4F
ACAC
1414
FAFA
C1C1
4F4F
ACAC
1414
FAFA
C1C1
4F4F
ACAC
1414
FAFA
C1C1
4F4F
ACAC
1414
FAFA
C1C1
4F4F
ACAC
1414
FAFA
C1C1
4F4F
ACAC
1414
FAFA
C1C1
4F4F
ACAC
1414
FAFA
C1C1
4F4F
ACAC
1414
FAFA
C1C1
4F4F
ACAC
1414
FAFA
C1C1
4F4F
ACAC
1414
FAFA
C1C1
4F4F
ACAC
1414
FAFA
C1C1
4F4F
ACAC
1414
FAFA
C1C1
4F4F
ACAC
1414
FAFA
C1C1
4F4F
ACAC
1414
FAFA
C1C1
4F4F
ACAC
1414
FAFA
C1C1
4F4F
ACAC
1414
FAFA
C1C1
4F4F
ACAC
1414
FAFA
C1C1
4F4F
ACAC
1414
FAFA
C1C1
4F4F
ACAC
1414
FAFA
C1C1
4F4F
ACAC
1414
FAFA
C1C1
4F4F
ACAC
1414
FAFA
C1C1
4F4F
ACAC
1414
FAFA
C1C1
4F4F
ACAC
1414
FAFA
C1C1
4F4F
ACAC
1414
FAFA
C1C1
4F4F
ACAC
1414
FAFA
C1C1
4F4F
ACAC
1414
FAFA
C1C1
4F4F
ACAC
1414
FAFA
C1C1
4F4F
ACAC
1414
FAFA
C1C1
4F4F
ACAC
1414
FAFA
C1C1
4F4F
ACAC
1414
FAFA
C1C1
4F4F
ACAC
1414
FAFA
C1C1
4F4F
ACAC
1414
FAFA
C1C1
4F4F
ACAC
1414
FAFA
C1C1
4F4F
ACAC
1414
FAFA
C1C1
4F4F
ACAC
1414
FAFA
C1C1
4F4F
ACAC
1414
FAFA
C1C1
4F4F
ACAC
1414
FAFA
C1C1
4F4F
ACAC
1414
FAFA
C1C1
4F4F
ACAC
1414
FAFA
C1C1
4F4F
ACAC
1414
FAFA
C1C1
4F4F
ACAC
1414
FAFA
C1C1
4F4F
ACAC
1414
FAFA
C1C1
4F4F
ACAC
1414
FAFA
C1C1
4F4F
ACAC
1414
FAFA
C1C1
4F4F
ACAC
1414
FAFA
C1C1
4F4F
ACAC
1414
FAFA
C1C1
4F4F
ACAC
1414
FAFA
C1C1
4F4F
ACAC
1414
FAFA
C1C1
4F4F
ACAC
1414
FAFA
C1C1
4F4F
ACAC
1414
FAFA
C1C1
4F4F
ACAC
1414
FAFA
C1C1
4F4F
ACAC
1414
FAFA
C1C1
4F4F
ACAC
1414
FAFA
C1C1
4F4F
ACAC
1414
FAFA
C1C1
4F4F
ACAC
1414
FAFA
C1C1
4F4F
ACAC
1414
FAFA
C1C1
4F4F
ACAC
1414
FAFA
C1C1
4F4F
ACAC
1414
FAFA
C1C1
4F4F
ACAC
1414
FAFA
C1C1
4F4F
ACAC
1414
FAFA
C1C1
4F4F
ACAC
1414
FAFA
C1C1
4F4F
ACAC
1414
FAFA
C1C1
4F4F
ACAC
1414
FAFA
C1C1
4F4F
ACAC
1414
FAFA
C1C1
4F4F
ACAC
1414
FAFA
C1C1
4F4F
ACAC
1414
FAFA
C1C1
4F4F
ACAC
1414
FAFA
C1C1
4F4F
ACAC
1414
FAFA
C1C1
4F4F
ACAC
1414
FAFA
C1C1
4F4F
ACAC
1414
FAFA
C1C1
4F4F
ACAC
1414
FAFA
C1C1
4F4F
ACAC
1414
FAFA
C1C1
4F4F
ACAC
1414
FAFA
C1C1
4F4F
ACAC
1414
FAFA
C1C1
4F4F
ACAC
1414
FAFA
C1C1
4F4F
ACAC
1414
FAFA
C1C1
4F4F
ACAC
1414
FAFA
C1C1
4F4F
ACAC
1414
FAFA
C1C1
4F4F
ACAC
1414
FAFA
C1C1
4F4F
ACAC
1414
FAFA
C1C1
4F4F
ACAC
1414
FAFA
C1C1
4F4F
ACAC
1414
FAFA
C1C1
4F4F
ACAC
1414
FAFA
C1C1
4F4F
ACAC
1414
FAFA
C1C1
4F4F
ACAC
1414
FAFA
C1C1
4F4F
ACAC
1414
FAFA
C1C1
4F4F
ACAC
1414
FAFA
C1C1
4F4F
ACAC
1414
FAFA
C1C1
4F4F
ACAC
1414
FAFA
C1C1
4F4F
ACAC
1414
FAFA
C1C1
4F4F
ACAC
1414
FAFA
C1C1
4F4F
ACAC
1414
FAFA
C1C1
4F4F
ACAC
1414
FAFA
C1C1
4F4F
ACAC
1414
FAFA
C1C1
4F4F
ACAC
1414
FAFA
C1C1
4F4F
ACAC
1414
FAFA
C1C1
4F4F
ACAC
1414
FAFA
C1C1
4F4F
ACAC
1414
FAFA
C1C1
4F4F
ACAC
1414
FAFA
C1C1
4F4F
ACAC
1414
FAFA
C1C1
4F4F
ACAC
1414
FAFA
C1C1
4F4F
ACAC
1414
FAFA
C1C1
4F4F
ACAC
1414
FAFA
C1C1
4F4F
ACAC
1414
FAFA
C1C1
4F4F
ACAC
1414
FAFA
C1C1
4F4F
ACAC
1414
FAFA
C1C1
4F4F
ACAC
1414
FAFA
C1C1
4F4F
ACAC
1414
FAFA
C1C1
4F4F
ACAC
1414
FAFA
C1C1
4F4F
ACAC
1414
FAFA
C1C1
4F4F
ACAC
1414
FAFA
C1C1
4F4F
ACAC
1414
FAFA
C1C1
4F4F
ACAC
1414
FAFA
C1C1
4F4F
ACAC
1414
FAFA
C1C1
4F4F
ACAC
1414
FAFA
C1C1
4F4F
ACAC
1414
FAFA
C1C1
4F4F
ACAC
1414
FAFA
C1C1
4F4F
ACAC
1414
FAFA
C1C1
4F4F
ACAC
1414
FAFA
C1C1
4F4F
ACAC
1414
FAFA
C1C1
4F4F
ACAC
1414
FAFA
C1C1
4F4F
ACAC
1414
FAFA
C1C1
4F4F
ACAC
1414
FAFA
C1C1
4F4F
ACAC
1414
FAFA
C1C1
4F4F
ACAC
1414
FAFA
C1C1
4F4F
ACAC
1414
FAFA
C1C1
4F4F
ACAC
1414
FAFA
C1C1
4F4F
ACAC
1414
FAFA
C1C1
4F4F
ACAC
1414
FAFA
C1C1
4F4F
ACAC
1414
FAFA
C1C1
4F4F
ACAC
1414
FAFA
C1C1
4F4F
ACAC
1414
FAFA
C1C1
4F4F
ACAC
1414
FAFA
C1C1
4F4F
ACAC
1414
FAFA
C1C1
4F4F
ACAC
1414
FAFA
C1C1
4F4F
ACAC
1414
FAFA
C1C1
4F4F
ACAC
1414
FAFA
C1C1
4F4F
ACAC
1414
FAFA
C1C1
4F4F
ACAC
1414
FAFA
C1C1
4F4F
ACAC
1414
FAFA
C1C1
4F4F
ACAC
1414
FAFA
C1C1
4F4F
ACAC
1414
FAFA
C1C1
4F4F
ACAC
1414
FAFA
C1C1
4F4F
ACAC
1414
FAFA
C1C1
4F4F
ACAC
1414
FAFA
C1C1
4F4F
ACAC
1414
FAFA
C1C1
4F4F
ACAC
1414
FAFA
C1C1
4F4F
ACAC
1414
FAFA
C1C1
4F4F
ACAC
1414
FAFA
C1C1
4F4F
ACAC
1414
FAFA
C1C1
4F4F
ACAC
1414
FAFA
C1C1
4F4F
ACAC
1414
FAFA
C1C1
4F4F
ACAC
1414
FAFA
C1C1
4F4F
ACAC
1414
FAFA
C1C1
4F4F
ACAC
1414
FAFA
C1C1
4F4F
ACAC
1414
FAFA
C1C1
4F4F
ACAC
1414
FAFA
C1C1
4F4F
ACAC
1414
FAFA
C1C1
4F4F
ACAC
1414
FAFA
C1C1
4F4F
ACAC
1414
FAFA
C1C1
4F4F
ACAC
1414
FAFA
C1C1
4F4F
ACAC
1414
FAFA
C1C1
4F4F
ACAC
1414
FAFA
C1C1
4F4F
ACAC
1414
FAFA
C1C1
4F4F
ACAC
1414
FAFA
C1C1
4F4F
ACAC
1414
FAFA
C1C1
4F4F
ACAC
1414
FAFA
C1C1
4F4F
ACAC
1414
FAFA
C1C1
4F4F
ACAC
1414
FAFA
C1C1
4F4F
ACAC
1414
FAFA
C1C1
4F4F
ACAC
1414
FAFA
C1C1
4F4F
ACAC
1414
FAFA
C1C1
4F4F
ACAC
1414
FAFA
C1C1
4F4F
ACAC
1414
FAFA
C1C1
4F4F
ACAC
1414
FAFA
C1C1
4F4F
ACAC
1414
FAFA
C1C1
4F4F
ACAC
1414
FAFA
C1C1
4F4F
ACAC
1414
FAFA
C1C1
4F4F
ACAC
1414
FAFA
C1C1
4F4F
ACAC
1414
FAFA
C1C1
4F4F
ACAC
1414
FAFA
C1C1
4F4F
ACAC
1414
FAFA
C1C1
4F4F
ACAC
1414
FAFA
C1C1
4F4F
ACAC
1414
FAFA
C1C1
4F4F
ACAC
1414
FAFA
C1C1
4F4F
ACAC
1414
FAFA
C1C1
4F4F
ACAC
1414
FAFA
C1C1
4F4F
ACAC
1414
FAFA
C1C1
4F4F
ACAC
1414
FAFA
C1C1
4F4F
ACAC
1414
FAFA
C1C1
4F4F
ACAC
1414
FAFA
C1C1
4F4F
ACAC
1414
FAFA
C1C1
4F4F
ACAC
1414
FAFA
C1C1
4F4F
ACAC
1414
FAFA
C1C1
4F4F
ACAC
1414
FAFA
C1C1
4F4F
ACAC
1414
FAFA
C1C1
4F4F
ACAC
1414
FAFA
C1C1
4F4F
ACAC
1414
FAFA
C1C1
4F4F
ACAC
1414
FAFA
C1C1
4F4F
ACAC
1414
FAFA
C1C1
4F4F
ACAC
1414
FAFA
C1C1
4F4F
ACAC
1414
FAFA
C1C1
4F4F
ACAC
1414
FAFA
C1C1
4F4F
ACAC
1414
FAFA
C1C1
4F4F
ACAC
1414
FAFA
C1C1
4F4F
ACAC
1414
FAFA
C1C1
4F4F
ACAC
1414
FAFA
C1C1
4F4F
ACAC
1414
FAFA
C1C1
4F4F
ACAC
1414
FAFA
C1C1
4F4F
ACAC
1414
FAFA
C1C1
4F4F
ACAC
1414
FAFA
C1C1
4F4F
ACAC
1414
FAFA
C1C1
4F4F
ACAC
1414
FAFA
C1C1
4F4F
ACAC
1414
FAFA
C1C1
4F4F
ACAC
1414
FAFA
C1C1
4F4F
ACAC
1414
FAFA
C1C1
4F4F
ACAC
1414
FAFA
C1C1
4F4F
ACAC
1414
FAFA
C1C1
4F4F
ACAC
1414
FAFA
C1C1
4F4F
ACAC
1414
FAFA
C1C1
4F4F
ACAC
1414
FAFA
C1C1
4F4F
ACAC
1414
FAFA
C1C1
4F4F
ACAC
1414
FAFA
C1C1
4F4F
ACAC
1414
FAFA
C1C1
4F4F
ACAC
1414
FAFA
C1C1
4F4F
ACAC
1414
FAFA
C1C1
4F4F
ACAC
1414
FAFA
C1C1
4F4F
ACAC
1414
FAFA
C1C1
4F4F
ACAC
1414
FAFA
C1C1
4F4F
ACAC
1414
FAFA
C1C1
4F4F
ACAC
1414
FAFA
C1C1
4F4F
ACAC
1414
FAFA
C1C1
4F4F
ACAC
1414
FAFA
C1C1
4F4F
ACAC
1414
FAFA
C1C1
4F4F
ACAC
1414
FAFA
C1C1
4F4F
ACAC
1414
FAFA
C1C1
4F4F
ACAC
1414
FAFA
C1C1
4F4F
ACAC
1414
FAFA
C1C1
4F4F
ACAC
1414
FAFA
C1C1
4F4F
ACAC
1414
FAFA
C1C1
4F4F
ACAC
1414
FAFA
C1C1
4F4F
ACAC
1414
FAFA
C1C1
4F4F
ACAC
1414
FAFA
C1C1
4F4F
ACAC
1414
FAFA
C1C1
4F4F
ACAC
1414
FAFA
C1C1
4F4F
ACAC
1414
FAFA
C1C1
4F4F
ACAC
1414
FAFA
C1C1
4F4F
ACAC
1414
FAFA
C1C1
4F4F
ACAC
1414
FAFA
C1C1
4F4F
ACAC
1414
FAFA
C1C1
4F4F
ACAC
1414
FAFA
C1C1
4F4F
ACAC
1414
FAFA
C1C1
4F4F
ACAC
1414
FAFA
C1C1
4F4F
ACAC
1414
FAFA
C1C1
4F4F
ACAC
1414
FAFA
C1C1
4F4F
ACAC
1414
FAFA
C1C1
4F4F
ACAC
1414
FAFA
C1C1
4F4F
ACAC
1414
FAFA
C1C1
4F4F
ACAC
1414
FAFA
C1C1
4F4F
ACAC
1414
FAFA
C1C1
4F4F
ACAC
1414
FAFA
C1C1
4F4F
ACAC
1414
FAFA
C1C1
4F4F
ACAC
1414
FAFA
C1C1
4F4F
ACAC
1414
FAFA
C1C1
4F4F
ACAC
1414
FAFA
C1C1
4F4F
ACAC
1414
FAFA
C1C1
4F4F
ACAC
1414
FAFA
C1C1
4F4F
ACAC
1414
FAFA
C1C1
4F4F
ACAC
1414
FAFA
C1C1
4F4F
ACAC
1414
FAFA
C1C1
4F4F
ACAC
1414
FAFA
C1C1
4F4F
ACAC
1414
FAFA
C1C1
4F4F
ACAC
1414
FAFA
C1C1
4F4F
ACAC
1414
FAFA
C1C1
4F4F
ACAC
1414
FAFA
C1C1
4F4F
ACAC
1414
FAFA
C1C1
4F4F
ACAC
1414
FAFA
C1C1
4F4F
ACAC
1414
FAFA
C1C1
4F4F
ACAC
1414
FAFA
C1C1
4F4F
ACAC
1414
FAFA
C1C1
4F4F
ACAC
1414
FAFA
C1C1
4F4F
ACAC
1414
FAFA
C1C1
4F4F
ACAC
1414
FAFA
C1C1
4F4F
ACAC
1414
FAFA
C1C1
4F4F
ACAC
1414
FAFA
C1C1
4F4F
ACAC
1414
FAFA
C1C1
4F4F
ACAC
1414
FAFA
C1C1
4F4F
ACAC
1414
FAFA
C1C1
4F4F
ACAC
1414
FAFA
C1C1
4F4F
ACAC
1414
FAFA
C1C1
4F4F
ACAC
1414
FAFA
C1C1
4F4F
ACAC
1414
FAFA
C1C1
4F4F
ACAC
1414
FAFA
C1C1
4F4F
ACAC
1414
FAFA
C1C1
4F4F
ACAC
1414
FAFA
C1C1
4F4F
ACAC
1414
FAFA
C1C1
4F4F
ACAC
1414
FAFA
C1C1
4F4F
ACAC
1414
FAFA
C1C1
4F4F
ACAC
1414
FAFA
C1C1
4F4F
ACAC
1414
FAFA
C1C1
4F4F
ACAC
1414
FAFA
C1C1
4F4F
ACAC
1414
FAFA
C1C1
4F4F
ACAC
1414
FAFA
C1C1
4F4F
ACAC
1414
FAFA
C1C1
4F4F
ACAC
1414
FAFA
C1C1
4F4F
ACAC
1414
FAFA
C1C1
4F4F
ACAC
1414
FAFA
C1C1
4F4F
ACAC
1414
FAFA
C1C1
4F4F
ACAC
1414
FAFA
C1C1
4F4F
ACAC
1414
FAFA
C1C1
4F4F
ACAC
1414
FAFA
C1C1
4F4F
ACAC
1414
FAFA
C1C1
4F4F
ACAC
1414
FAFA
C1C1
4F4F
ACAC
1414
FAFA
C1C1
4F4F
ACAC
1414
FAFA
C1C1
4F4F
ACAC
1414
FAFA
C1C1
4F4F
ACAC
1414
FAFA
C1C1
4F4F
ACAC
1414
FAFA
C1C1
4F4F
ACAC
1414
FAFA
C1C1
4F4F
ACAC
1414
FAFA
C1C1
4F4F
ACAC
1414
FAFA
C1C1
4F4F
ACAC
1414
FAFA
C1C1
4F4F
ACAC
1414
FAFA
C1C1
4F4F
ACAC
1414
FAFA
C1C1
4F4F
ACAC
1414
FAFA
C1C1
4F4F
ACAC
1414
FAFA
C1C1
4F4F
ACAC
1414
FAFA
C1C1
4F4F
ACAC
1414
FAFA
C1C1
4F4F
ACAC
1414
FAFA
C1C1
4F4F
ACAC
1414
FAFA
C1C1
4F4F
ACAC
1414
FAFA
C1C1
4F4F
ACAC
1414
FAFA
C1C1
4F4F
ACAC
1414
FAFA
C1C1
4F4F
ACAC
1414
FAFA
C1C1
4F4F
ACAC
1414
FAFA
C1C1
4F4F
ACAC
1414
FAFA
C1C1
4F4F
ACAC
1414
FAFA
C1C1
4F4F
ACAC
1414
FAFA
C1C1
4F4F
ACAC
1414
FAFA
C1C1
4F4F
ACAC
1414
FAFA
C1C1
4F4F
ACAC
1414
FAFA
C1C1
4F4F
ACAC
1414
FAFA
C1C1
4F4F
ACAC
1414
FAFA
C1C1
4F4F
ACAC
1414
FAFA
C1C1
4F4F
ACAC
1414
FAFA
C1C1
4F4F
ACAC
1414
FAFA
C1C1
4F4F
ACAC
1414
FAFA
C1C1
4F4F
ACAC
1414
FAFA
C1C1
4F4F
ACAC
1414
FAFA
C1C1
4F4F
ACAC
1414
FAFA
C1C1
4F4F
ACAC
1414
FAFA
C1C1
4F4F
ACAC
1414
FAFA
C1C1
4F4F
ACAC
1414
FAFA
C1C1
4F4F
ACAC
1414
FAFA
C1C1
4F4F
ACAC
1414
FAFA
C1C1
4F4F
ACAC
1414
FAFA
C1C1
4F4F
ACAC
1414
FAFA
C1C1
4F4F
ACAC
1414
FAFA
C1C1
4F4F
ACAC
1414
FAFA
C1C1
4F4F
ACAC
1414
FAFA
C1C1
4F4F
ACAC
1414
FAFA
C1C1
4F4F
ACAC
1414
FAFA
C1C1
4F4F
ACAC
1414
FAFA
C1C1
4F4F
ACAC
1414
FAFA
C1C1
4F4F
ACAC
1414
FAFA
C1C1
4F4F
ACAC
1414
FAFA
C1C1
4F4F
ACAC
1414
FAFA
C1C1
4F4F
ACAC
1414
FAFA
C1C1
4F4F
ACAC
1414
FAFA
C1C1
4F4F
ACAC
1414
FAFA
C1C1
4F4F
ACAC
1414
FAFA
C1C1
4F4F
ACAC
1414
FAFA
C1C1
4F4F
ACAC
1414
FAFA
C1C1
4F4F
ACAC
1414
FAFA
C1C1
4F4F
ACAC
1414
FAFA
C1C1
4F4F
ACAC
1414
FAFA
C1C1
4F4F
ACAC
1414
FAFA
C1C1
4F4F
ACAC
1414
FAFA
C1C1
4F4F
ACAC
1414
FAFA
C1C1
4F4F
ACAC
1414
FAFA
C1C1
4F4F
ACAC
1414
FAFA
C1C1
4F4F
ACAC
1414
FAFA
C1C1
4F4F
ACAC
1414
FAFA
C1C1
4F4F
ACAC
1414
FAFA
C1C1
4F4F
ACAC
1414
FAFA
C1C1
4F4F
ACAC
1414
FAFA
C1C1
4F4F
ACAC
1414
FAFA
C1C1
4F4F
ACAC
1414
FAFA
C1C1
4F4F
ACAC
1414
FAFA
C1C1
4F4F
ACAC
1414
FAFA
C1C1
4F4F
ACAC
1414
FAFA
C1C1
4F4F
ACAC
1414
FAFA
C1C1
4F4F
ACAC
1414
FAFA
C1C1
4F4F
ACAC
1414
FAFA
C1C1
4F4F
ACAC
1414
FAFA
C1C1
4F4F
ACAC
1414
FAFA
C1C1
4F4F
ACAC
1414
FAFA
C1C1
4F4F
ACAC
1414
FAFA
C1C1
4F4F
ACAC
1414
FAFA
C1C1
4F4F
ACAC
1414
FAFA
C1C1
4F4F
ACAC
1414
FAFA
C1C1
4F4F
ACAC
1414
FAFA
C1C1
4F4F
ACAC
1414
FAFA
C1C1
4F4F
ACAC
1414
FAFA
C1C1
4F4F
ACAC
1414
FAFA
C1C1
4F4F
ACAC
1414
FAFA
C1C1
4F4F
ACAC
1414
FAFA
C1C1
4F4F
ACAC
1414
FAFA
C1C1
4F4F
ACAC
1414
FAFA
C1C1
4F4F
ACAC
1414
FAFA
C1C1
4F4F
ACAC
1414
FAFA
C1C1
4F4F
ACAC
1414
FAFA
C1C1
4F4F
ACAC
1414
FAFA
C1C1
4F4F
ACAC
1414
FAFA
C1C1
4F4F
ACAC
1414
FAFA
C1C1
4F4F
ACAC
1414
FAFA
C1C1
4F4F
ACAC
1414
FAFA
C1C1
4F4F
ACAC
1414
FAFA
C1C1
4F4F
ACAC
1414
FAFA
C1C1
4F4F
ACAC
1414
FAFA
C1C1
4F4F
ACAC
1414
FAFA
C1C1
4F4F
ACAC
1414
FAFA
C1C1
4F4F
ACAC
1414
FAFA
C1C1
4F4F
ACAC
1414
FAFA
C1C1
4F4F
ACAC
1414
FAFA
C1C1
4F4F
ACAC
1414
FAFA
C1C1
4F4F
ACAC
1414
FAFA
C1C1
4F4F
ACAC
1414
FAFA
C1C1
4F4F
ACAC
1414
FAFA
C1C1
4F4F
ACAC
1414
FAFA
C1C1
4F4F
ACAC
1414
FAFA
C1C1
4F4F
ACAC
1414
FAFA
C1C1
4F4F
ACAC
1414
FAFA
C1C1
4F4F
ACAC
1414
FAFA
C1C1
4F4F
ACAC
1414
FAFA
C1C1
4F4F
ACAC
1414
FAFA
C1C1
4F4F
ACAC
1414
FAFA
C1C1
4F4F
ACAC
1414
FAFA
C1C1
4F4F
ACAC
1414
FAFA
C1C1
4F4F
ACAC
1414
FAFA
C1C1
4F4F
ACAC
1414
FAFA
C1C1
4F4F
ACAC
1414
FAFA
C1C1
4F4F
ACAC
1414
FAFA
C1C1
4F4F
ACAC
1414
FAFA
C1C1
4F4F
ACAC
1414
FAFA
C1C1
4F4F
ACAC
1414
FAFA
C1C1
4F4F
ACAC
1414
FAFA
C1C1
4F4F
ACAC
1414
FAFA
C1C1
4F4F
ACAC
1414
FAFA
C1C1
4F4F
ACAC
1414
FAFA
C1C1
4F4F
ACAC
1414
FAFA
C1C1
4F4F
ACAC
1414
FAFA
C1C1
4F4F
ACAC
1414
FAFA
C1C1
4F4F
ACAC
1414
FAFA
C1C1
4F4F
ACAC
1414
FAFA
C1C1
4F4F
ACAC
1414
FAFA
C1C1
4F4F
ACAC
1414
FAFA
C1C1
4F4F
ACAC
1414
FAFA
C1C1
4F4F
ACAC
1414
FAFA
C1C1
4F4F
ACAC
1414
FAFA
C1C1
4F4F
ACAC
1414
FAFA
C1C1
4F4F
ACAC
1414
FAFA
C1C1
4F4F
ACAC
1414
FAFA
C1C1
4F4F
ACAC
1414
FAFA
C1C1
4F4F
ACAC
1414
FAFA
C1C1
4F4F
ACAC
1414
FAFA
C1C1
4F4F
ACAC
1414
FAFA
C1C1
4F4F
ACAC
1414
FAFA
C1C1
4F4F
ACAC
1414
FAFA
C1C1
4F4F
ACAC
1414
FAFA
C1C1
4F4F
ACAC
1414
FAFA
C1C1
4F4F
ACAC
1414
FAFA
C1C1
4F4F
ACAC
1414
FAFA
C1C1
4F4F
ACAC
1414
FAFA
C1C1
4F4F
ACAC
1414
FAFA
C1C1
4F4F
ACAC
1414
FAFA
C1C1
4F4F
ACAC
1414
FAFA
C1C1
4F4F
ACAC
1414
FAFA
C1C1
4F4F
ACAC
1414
FAFA
C1C1
4F4F
ACAC
1414
FAFA
C1C1
4F4F
ACAC
1414
FAFA
C1C1
4F4F
ACAC
1414
FAFA
C1C1
4F4F
ACAC
1414
FAFA
C1C1
4F4F
ACAC
1414
FAFA
C1C1
4F4F
ACAC
1414
FAFA
C1C1
4F4F
ACAC
1414
FAFA
C1C1
4F4F
ACAC
1414
FAFA
C1C1
4F4F
ACAC
1414
FAFA
C1C1
4F4F
ACAC
1414
FAFA
C1C1
4F4F
ACAC
1414
FAFA
C1C1
4F4F
ACAC
1414
FAFA
C1C1
4F4F
ACAC
1414
FAFA
C1C1
4F4F
ACAC
1414
FAFA
C1C1
4F4F
ACAC
1414
FAFA
C1C1
4F4F
ACAC
1414
FAFA
C1C1
4F4F
ACAC
1414
FAFA
C1C1
4F4F
ACAC
1414
FAFA
C1C1
4F4F
ACAC
1414
FAFA
C1C1
4F4F
ACAC
1414
FAFA
C1C1
4F4F
ACAC
1414
FAFA
C1C1
4F4F
ACAC
1414
FAFA
C1C1
4F4F
ACAC
1414
FAFA
C1C1
4F4F
ACAC
1414
FAFA
C1C1
4F4F
ACAC
1414
FAFA
C1C1
4F4F
ACAC
1414
FAFA
C1C1
4F4F
ACAC
1414
FAFA
C1C1
4F4F
ACAC
1414
FAFA
C1C1
4F4F
ACAC
1414
FAFA
C1C1
4F4F
ACAC
1414
FAFA
C1C1
4F4F
ACAC
1414
FAFA
C1C1
4F4F
ACAC
1414
FAFA
C1C1
4F4F
ACAC
1414
FAFA
C1C1
4F4F
ACAC
1414
FAFA
C1C1
4F4F
ACAC
1414
FAFA
C1C1
4F4F
ACAC
1414
FAFA
C1C1
4F4F
ACAC
1414
FAFA
C1C1
4F4F
ACAC
1414
FAFA
C1C1
4F4F
ACAC
1414
FAFA
C1C1
4F4F
ACAC
1414
FAFA
C1C1
4F4F
ACAC
1414
FAFA
C1C1
4F4F
ACAC
1414
FAFA
C1C1
4F4F
ACAC
1414
FAFA
C1C1
4F4F
ACAC
1414
FAFA
C1C1
4F4F
ACAC
1414
FAFA
C1C1
4F4F
ACAC
1414
FAFA
C1C1
4F4F
ACAC
1414
FAFA
C1C1
4F4F
ACAC
1414
FAFA
C1C1
4F4F
ACAC
1414
FAFA
C1C1
4F4F
ACAC
1414
FAFA
C1C1
4F4F
ACAC
1414
FAFA
C1C1
4F4F
ACAC
1414
FAFA
C1C1
4F4F
ACAC
1414
FAFA
C1C1
4F4F
ACAC
1414
FAFA
C1C1
4F4F
ACAC
1414
FAFA
C1C1
4F4F
ACAC
1414
FAFA
C1C1
4F4F
ACAC
1414
FAFA
C1C1
4F4F
ACAC
1414
FAFA
C1C1
4F4F
ACAC
1414
FAFA
C1C1
4F4F
ACAC
1414
FAFA
C1C1
4F4F
ACAC
1414
FAFA
C1C1
4F4F
ACAC
1414
FAFA
C1C1
4F4F
ACAC
1414
FAFA
C1C1
4F4F
ACAC
1414
FAFA
C1C1
4F4F
ACAC
1414
FAFA
C1C1
4F4F
ACAC
1414
FAFA
C1C1
4F4F
ACAC
1414
FAFA
C1C1
4F4F
ACAC
1414
FAFA
C1C1
4F4F
ACAC
1414
FAFA
C1C1
4F4F
ACAC
1414
FAFA
C1C1
4F4F
ACAC
1414
FAFA
C1C1
4F4F
ACAC
1414
FAFA
C1C1
4F4F
ACAC
1414
FAFA
C1C1
4F4F
ACAC
1414
FAFA
C1C1
4F4F
ACAC
1414
FAFA
C1C1
4F4F
ACAC
1414
FAFA
C1C1
4F4F
ACAC
1414
FAFA
C1C1
4F4F
ACAC
1414
FAFA
C1C1
4F4F
ACAC
1414
FAFA
C1C1
4F4F
ACAC
1414
FAFA
C1C1
4F4F
ACAC
1414
FAFA
C1C1
4F4F
ACAC
1414
FAFA
C1C1
4F4F
ACAC
1414
FAFA
C1C1
4F4F
ACAC
1414
FAFA
C1C1
4F4F
ACAC
1414
FAFA
C1C1
4F4F
ACAC
1414
FAFA
C1C1
4F4F
ACAC
1414
FAFA
C1C1
4F4F
ACAC
1414
FAFA
C1C1
4F4F
ACAC
1414
FAFA
C1C1
4F4F
ACAC
1414
FAFA
C1C1
4F4F
ACAC
1414
FAFA
C1C1
4F4F
ACAC
1414
FAFA
C1C1
4F4F
ACAC
1414
FAFA
C1C1
4F4F
ACAC
1414
FAFA
C1C1
4F4F
ACAC
1414
FAFA
C1C1
4F4F
ACAC
1414
FAFA
C1C1
4F4F
ACAC
1414
FAFA
C1C1
4F4F
ACAC
1414
FAFA
C1C1
4F4F
ACAC
1414
FAFA
C1C1
4F4F
ACAC
1414
FAFA
C1C1
4F4F
ACAC
1414
FAFA
C1C1
4F4F
ACAC
1414
FAFA
C1C1
4F4F
ACAC
1414
FAFA
C1C1
4F4F
ACAC
1414
FAFA
C1C1
4F4F
ACAC
1414
FAFA
C1C1
4F4F
ACAC
1414
FAFA
C1C1
4F4F
ACAC
1414
FAFA
C1C1
4F4F
ACAC
1414
FAFA
C1C1
4F4F
ACAC
1414
FAFA
C1C1
4F4F
ACAC
1414
FAFA
C1C1
4F4F
ACAC
1414
FAFA
C1C1
4F4F
ACAC
1414
FAFA
C1C1
4F4F
ACAC
1414
FAFA
C1C1
4F4F
ACAC
1414
FAFA
C1C1
4F4F
ACAC
1414
FAFA
C1C1
4F4F
ACAC
1414
FAFA
C1C1
4F4F
ACAC
1414
FAFA
C1C1
4F4F
ACAC
1414
FAFA
C1C1
4F4F
ACAC
1414
FAFA
C1C1
4F4F
ACAC
1414
FAFA
C1C1
4F4F
ACAC
1414
FAFA
C1C1
4F4F
ACAC
1414
FAFA
C1C1
4F4F
ACAC
1414
FAFA
C1C1
4F4F
ACAC
1414
FAFA
C1C1
4F4F
ACAC
1414
FAFA
C1C1
4F4F
ACAC
1414
FAFA
C1C1
4F4F
ACAC
1414
FAFA
C1C1
4F4F
ACAC
1414
FAFA
C1C1
4F4F
ACAC
1414
FAFA
C1C1
4F4F
ACAC
1414
FAFA
C1C1
4F4F
ACAC
1414
FAFA
C1C1
4F4F
ACAC
1414
FAFA
C1C1
4F4F
ACAC
1414
FAFA
C1C1
4F4F
ACAC
1414
FAFA
C1C1
4F4F
ACAC
1414
FAFA
C1C1
4F4F
ACAC
1414
FAFA
C1C1
4F4F
ACAC
1414
FAFA
C1C1
4F4F
ACAC
1414
FAFA
C1C1
4F4F
ACAC
1414
FAFA
C1C1
4F4F
ACAC
1414
FAFA
C1C1
4F4F
ACAC
1414
FAFA
C1C1
4F4F
ACAC
1414
FAFA
C1C1
4F4F
ACAC
1414
FAFA
C1C1
4F4F
ACAC
1414
FAFA
C1C1
4F4F
ACAC
1414
FAFA
C1C1
4F4F
ACAC
1414
FAFA
C1C1
4F4F
ACAC
1414
FAFA
C1C1
4F4F
ACAC
1414
FAFA
C1C1
4F4F
ACAC
1414
FAFA
C1C1
4F4F
ACAC
1414
FAFA
C1C1
4F4F
ACAC
1414
FAFA
C1C1
4F4F
ACAC
1414
FAFA
C1C1
4F4F
ACAC
1414
FAFA
C1C1
4F4F
ACAC
1414
FAFA
C1C1
4F4F
ACAC
1414
FAFA
C1C1
4F4F
ACAC
1414
FAFA
C1C1
4F4F
ACAC
1414
FAFA
C1C1
4F4F
ACAC
1414
FAFA
C1C1
4F4F
ACAC
1414
FAFA
C1C1
4F4F
ACAC
1414
FAFA
C1C1
4F4F
ACAC
1414
FAFA
C1C1
4F4F
ACAC
1414
FAFA
C1C1
4F4F
ACAC
1414
FAFA
C1C1
4F4F
ACAC
1414
FAFA
C1C1
4F4F
ACAC
1414
FAFA
C1C1
4F4F
ACAC
1414
FAFA
C1C1
4F4F
ACAC
1414
FAFA
C1C1
4F4F
ACAC
1414
FAFA
C1C1
4F4F
ACAC
1414
FAFA
C1C1
4F4F
ACAC
1414
FAFA
C1C1
4F4F
ACAC
1414
FAFA
C1C1
4F4F
ACAC
1414
FAFA
C1C1
4F4F
ACAC
1414
FAFA
C1C1
4F4F
ACAC
1414
FAFA
C1C1
4F4F
ACAC
1414
FAFA
C1C1
4F4F
ACAC
1414
FAFA
C1C1
4F4F
ACAC
1414
FAFA
C1C1
4F4F
ACAC
1414
FAFA
C1C1
4F4F
ACAC
1414
FAFA
C1C1
4F4F
ACAC
1414
FAFA
C1C1
4F4F
ACAC
1414
FAFA
C1C1
4F4F
ACAC
1414
FAFA
C1C1
4F4F
ACAC
1414
FAFA
C1C1
4F4F
ACAC
1414
FAFA
C1C1
4F4F
ACAC
1414
FAFA
C1C1
4F4F
ACAC
1414
FAFA
C1C1
4F4F
ACAC
1414
FAFA
C1C1
4F4F
ACAC
1414
FAFA
C1C1
4F4F
ACAC
1414
FAFA
C1C1
4F4F
ACAC
1414
FAFA
C1C1
4F4F
ACAC
1414
FAFA
C1C1
4F4F
ACAC
1414
FAFA
C1C1
4F4F
ACAC
1414
FAFA
C1C1
4F4F
ACAC
1414
FAFA
C1C1
4F4F
ACAC
1414
FAFA
C1C1
4F4F
ACAC
1414
FAFA
C1C1
4F4F
ACAC
1414
FAFA
C1C1
4F4F
ACAC
1414
FAFA
C1C1
4F4F
ACAC
1414
FAFA
C1C1
4F4F
ACAC
1414
FAFA
C1C1
4F4F
ACAC
1414
FAFA
C1C1
4F4F
ACAC
1414
FAFA
C1C1
4F4F
ACAC
1414
FAFA
C1C1
4F4F
ACAC
1414
FAFA
C1C1
4F4F
ACAC
1414
FAFA
C1C1
4F4F
ACAC
1414
FAFA
C1C1
4F4F
ACAC
1414
FAFA
C1C1
4F4F
ACAC
1414
FAFA
C1C1
4F4F
ACAC
1414
FAFA
C1C1
4F4F
ACAC
1414
FAFA
C1C1
4F4F
ACAC
1414
FAFA
C1C1
4F4F
ACAC
1414
FAFA
C1C1
4F4F
ACAC
1414
FAFA
C1C1
4F4F
ACAC
1414
FAFA
C1C1
4F4F
ACAC
1414
FAFA
C1C1
4F4F
ACAC
1414
FAFA
C1C1
4F4F
ACAC
1414
FAFA
C1C1
4F4F
ACAC
1414
FAFA
C1C1
4F4F
ACAC
1414
FAFA
C1C1
4F4F
ACAC
1414
FAFA
C1C1
4F4F
ACAC
1414
FAFA
C1C1
4F4F
ACAC
1414
FAFA
C1C1
4F4F
ACAC
1414
FAFA
C1C1
4F4F
ACAC
1414
FAFA
C1C1
4F4F
ACAC
1414
FAFA
C1C1
4F4F
ACAC
1414
FAFA
C1C1
4F4F
ACAC
1414
FAFA
C1C1
4F4F
ACAC
1414
FAFA
C1C1
4F4F
ACAC
1414
FAFA
C1C1
4F4F
ACAC
1414
FAFA
C1C1
4F4F
ACAC
1414
FAFA
C1C1
4F4F
ACAC
1414
FAFA
C1C1
4F4F
ACAC
1414
FAFA
C1C1
4F4F
ACAC
1414
FAFA
C1C1
4F4F
ACAC
1414
FAFA
C1C1
4F4F
ACAC
1414
FAFA
C1C1
4F4F
ACAC
1414
FAFA
C1C1
4F4F
ACAC
1414
FAFA
C1C1
4F4F
ACAC
1414
FAFA
C1C1
4F4F
ACAC
1414
FAFA
C1C1
4F4F
ACAC
1414
FAFA
C1C1
4F4F
ACAC
1414
FAFA
C1C1
4F4F
ACAC
1414
FAFA
C1C1
4F4F
ACAC
1414
FAFA
C1C1
4F4F
ACAC
1414
FAFA
C1C1
4F4F
ACAC
1414
FAFA
C1C1
4F4F
ACAC
1414
FAFA
C1C1
4F4F
ACAC
1414
FAFA
C1C1
4F4F
ACAC
1414
FAFA
C1C1
4F4F
ACAC
1414
FAFA
C1C1
4F4F
ACAC
1414
FAFA
C1C1
4F4F
ACAC
1414
FAFA
C1C1
4F4F
ACAC
1414
FAFA
C1C1
4F4F
ACAC
1414
FAFA
C1C1
4F4F
ACAC
1414
FAFA
C1C1
4F4F
ACAC
1414
FAFA
C1C1
4F4F
ACAC
1414
FAFA
C1C1
4F4F
ACAC
1414
FAFA
C1C1
4F4F
ACAC
1414
FAFA
C1C1
4F4F
ACAC
1414
FAFA
C1C1
4F4F
ACAC
1414
FAFA
C1C1
4F4F
ACAC
1414
FAFA
C1C1
4F4F
ACAC
1414
FAFA
C1C1
4F4F
ACAC
1414
FAFA
C1C1
4F4F
ACAC
1414
FAFA
C1C1
4F4F
ACAC
1414
FAFA
C1C1
4F4F
ACAC
1414
FAFA
C1C1
4F4F
ACAC
1414
FAFA
C1C1
4F4F
ACAC
1414
FAFA
C1C1
4F4F
ACAC
1414
FAFA
C1C1
4F4F
ACAC
1414
FAFA
C1C1
4F4F
ACAC
1414
FAFA
C1C1
4F4F
ACAC
1414
FAFA
C1C1
4F4F
ACAC
1414
FAFA
C1C1
4F4F
ACAC
1414
FAFA
C1C1
4F4F
ACAC
1414
FAFA
C1C1
4F4F
ACAC
1414
FAFA
C1C1
4F4F
ACAC
1414
FAFA
C1C1
4F4F
ACAC
1414
FAFA
C1C1
4F4F
ACAC
1414
FAFA
C1C1
4F4F
ACAC
1414
FAFA
C1C1
4F4F
ACAC
1414
FAFA
C1C1
4F4F
ACAC
1414
FAFA
C1C1
4F4F
ACAC
1414
FAFA
C1C1
4F4F
ACAC
1414
FAFA
C1C1
4F4F
ACAC
1414
FAFA
C1C1
4F4F
ACAC
1414
FAFA
C1C1
4F4F
ACAC
1414
FAFA
C1C1
4F4F
ACAC
1414
FAFA
C1C1
4F4F
ACAC
1414
FAFA
C1C1
4F4F
ACAC
1414
FAFA
C1C1
4F4F
ACAC
1414
FAFA
C1C1
4F4F
ACAC
1414
FAFA
C1C1
4F4F
ACAC
1414
FAFA
C1C1
4F4F
ACAC
1414
FAFA
C1C1
4F4F
ACAC
1414
FAFA
C1C1
4F4F
ACAC
1414
FAFA
C1C1
4F4F
ACAC
1414
FAFA
C1C1
4F4F
ACAC
1414
FAFA
C1C1
4F4F
ACAC
1414
FAFA
C1C1
4F4F
ACAC
1414
FAFA
C1C1
4F4F
ACAC
1414
FAFA
C1C1
4F4F
ACAC
1414
FAFA
C1C1
4F4F
ACAC
1414
FAFA
C1C1
4F4F
ACAC
1414
FAFA
C1C1
4F4F
ACAC
1414
FAFA
C1C1
4F4F
ACAC
1414
FAFA
C1C1
4F4F
ACAC
1414
FAFA
C1C1
4F4F
ACAC
1414
FAFA
C1C1
4F4F
ACAC
1414
FAFA
C1C1
4F4F
ACAC
1414
FAFA
C1C1
4F4F
ACAC
1414
FAFA
C1C1
4F4F
ACAC
1414
FAFA
C1C1
4F4F
ACAC
1414
FAFA
C1C1
4F4F
ACAC
1414
FAFA
C1C1
4F4F
ACAC
1414
FAFA
C1C1
4F4F
ACAC
1414
FAFA
C1C1
4F4F
ACAC
1414
FAFA
C1C1
4F4F
ACAC
1414
FAFA
C1C1
4F4F
ACAC
1414
FAFA
C1C1
4F4F
ACAC
1414
FAFA
C1C1
4F4F
ACAC
1414
FAFA
C1C1
4F4F
ACAC
1414
FAFA
C1C1
4F4F
ACAC
1414
FAFA
C1C1
4F4F
ACAC
1414
FAFA
C1C1
4F4F
ACAC
1414
FAFA
C1C1
4F4F
ACAC
1414
FAFA
C1C1
4F4F
ACAC
1414
FAFA
C1C1
4F4F
ACAC
1414
FAFA
C1C1
4F4F
ACAC
1414
FAFA
C1C1
4F4F
ACAC
1414
FAFA
C1C1
4F4F
ACAC
1414
FAFA
C1C1
4F4F
ACAC
1414
FAFA
C1C1
4F4F
ACAC
1414
FAFA
C1C1
4F4F
ACAC
1414
FAFA
C1C1
4F4F
ACAC
1414
FAFA
C1C1
4F4F
ACAC
1414
FAFA
C1C1
4F4F
ACAC
1414
FAFA
C1C1
4F4F
ACAC
1414
FAFA
C1C1
4F4F
ACAC
1414
FAFA
C1C1
4F4F
ACAC
1414
FAFA
C1C1
4F4F
ACAC
1414
FAFA
C1C1
4F4F
ACAC
1414
FAFA
C1C1
4F4F
ACAC
1414
FAFA
C1C1
4F4F
ACAC
1414
FAFA
C1C1
4F4F
ACAC
1414
FAFA
C1C1
4F4F
ACAC
1414
FAFA
C1C1
4F4F
ACAC
1414
FAFA
C1C1
4F4F
ACAC
1414
FAFA
C1C1
4F4F
ACAC
1414
FAFA
C1C1
4F4F
ACAC
1414
FAFA
C1C1
4F4F
ACAC
1414
FAFA
C1C1
4F4F
ACAC
1414
FAFA
C1C1
4F4F
ACAC
1414
FAFA
C1C1
4F4F
ACAC
1414
FAFA
C1C1
4F4F
ACAC
1414
FAFA
C1C1
4F4F
ACAC
1414
FAFA
C1C1
4F4F
ACAC
1414
FAFA
C1C1
4F4F
ACAC
1414
FAFA
C1C1
4F4F
ACAC
1414
FAFA
C1C1
4F4F
ACAC
1414
FAFA
C1C1
4F4F
ACAC
1414
FAFA
C1C1
4F4F
ACAC
1414
FAFA
C1C1
4F4F
ACAC
1414
FAFA
C1C1
4F4F
ACAC
1414
FAFA
C1C1
4F4F
ACAC
1414
FAFA
C1C1
4F4F
ACAC
1414
FAFA
C1C1
4F4F
ACAC
1414
FAFA
C1C1
4F4F
ACAC
1414
FAFA
C1C1
4F4F
ACAC
1414
FAFA
C1C1
4F4F
ACAC
1414
FAFA
C1C1
4F4F
ACAC
1414
FAFA
C1C1
4F4F
ACAC
1414
FAFA
C1C1
4F4F
ACAC
1414
FAFA
C1C1
4F4F
ACAC
1414
FAFA
C1C1
4F4F
ACAC
1414
FAFA
C1C1
4F4F
ACAC
1414
FAFA
C1C1
4F4F
ACAC
1414
FAFA
C1C1
4F4F
ACAC
1414
FAFA
C1C1
4F4F
ACAC
1414
FAFA
C1C1
4F4F
ACAC
1414
FAFA
C1C1
4F4F
ACAC
1414
FAFA
C1C1
4F4F
ACAC
1414
FAFA
C1C1
4F4F
ACAC
1414
FAFA
C1C1
4F4F
ACAC
1414
FAFA
C1C1
4F4F
ACAC
1414
FAFA
C1C1
4F4F
ACAC
1414
FAFA
C1C1
4F4F
ACAC
1414
FAFA
C1C1
4F4F
ACAC
1414
FAFA
C1C1
4F4F
ACAC
1414
FAFA
C1C1
4F4F
ACAC
1414
FAFA
C1C1
4F4F
ACAC
1414
FAFA
C1C1
4F4F
ACAC
1414
FAFA
C1C1
4F4F
ACAC
1414
FAFA
C1C1
4F4F
ACAC
1414
FAFA
C1C1
4F4F
ACAC
1414
FAFA
C1C1
4F4F
ACAC
1414
FAFA
C1C1
4F4F
ACAC
1414
FAFA
C1C1
4F4F
ACAC
1414
FAFA
C1C1
4F4F
ACAC
1414
FAFA
C1C1
4F4F
ACAC
1414
FAFA
C1C1
4F4F
ACAC
1414
FAFA
C1C1
4F4F
ACAC
1414
FAFA
C1C1
4F4F
ACAC
1414
FAFA
C1C1
4F4F
ACAC
1414
FAFA
C1C1
4F4F
ACAC
1414
FAFA
C1C1
4F4F
ACAC
1414
FAFA
C1C1
4F4F
ACAC
1414
FAFA
C1C1
4F4F
ACAC
1414
FAFA
C1C1
4F4F
ACAC
1414
FAFA
C1C1
4F4F
ACAC
1414
FAFA
C1C1
4F4F
ACAC
1414
FAFA
C1C1
4F4F
ACAC
1414
FAFA
C1C1
4F4F
ACAC
1414
FAFA
C1C1
4F4F
ACAC
1414
FAFA
C1C1
4F4F
ACAC
1414
FAFA
C1C1
4F4F
ACAC
1414
FAFA
C1C1
4F4F
ACAC
1414
FAFA
C1C1
4F4F
ACAC
1414
FAFA
C1C1
4F4F
ACAC
1414
FAFA
C1C1
4F4F
ACAC
1414
FAFA
C1C1
4F4F
ACAC
1414
FAFA
C1C1
4F4F
ACAC
1414
FAFA
C1C1
4F4F
ACAC
1414
FAFA
C1C1
4F4F
ACAC
1414
FAFA
C1C1
4F4F
ACAC
1414
FAFA
C1C1
4F4F
ACAC
1414
FAFA
C1C1
4F4F
ACAC
1414
FAFA
C1C1
4F4F
ACAC
1414
FAFA
C1C1
4F4F
ACAC
1414
FAFA
C1C1
4F4F
ACAC
1414
FAFA
C1C1
4F4F
ACAC
1414
FAFA
C1C1
4F4F
ACAC
1414
FAFA
C1C1
4F4F
ACAC
1414
FAFA
C1C1
4F4F
ACAC
1414
FAFA
C1C1
4F4F
ACAC
1414
FAFA
C1C1
4F4F
ACAC
1414
FAFA
C1C1
4F4F
ACAC
1414
FAFA
C1C1
4F4F
ACAC
1414
FAFA
C1C1
4F4F
ACAC
1414
FAFA
C1C1
4F4F
ACAC
1414
FAFA
C1C1
4F4F
ACAC
1414
FAFA
C1C1
4F4F
ACAC
1414
FAFA
C1C1
4F4F
ACAC
1414
FAFA
C1C1
4F4F
ACAC
1414
FAFA
C1C1
4F4F
ACAC
1414
FAFA
C1C1
4F4F
ACAC
1414
FAFA
C1C1
4F4F
ACAC
1414
FAFA
C1C1
4F4F
ACAC
1414
FAFA
C1C1
4F4F
ACAC
1414
FAFA
C1C1
4F4F
ACAC
1414
FAFA
C1C1
4F4F
ACAC
1414
FAFA
C1C1
4F4F
ACAC
1414
FAFA
C1C1
4F4F
ACAC
1414
FAFA
C1C1
4F4F
ACAC
1414
FAFA
C1C1
4F4F
ACAC
1414
FAFA
C1C1
4F4F
ACAC
1414
FAFA
C1C1
4F4F
ACAC
1414
FAFA
C1C1
4F4F
ACAC
1414
FAFA
C1C1
4F4F
ACAC
1414
FAFA
C1C1
4F4F
ACAC
1414
FAFA
C1C1
4F4F
ACAC
1414
FAFA
C1C1
4F4F
ACAC
1414
FAFA
C1C1
4F4F
ACAC
1414
FAFA
C1C1
4F4F
ACAC
1414
FAFA
C1C1
4F4F
ACAC
1414
FAFA
C1C1
4F4F
ACAC
1414
FAFA
C1C1
4F4F
ACAC
1414
FAFA
C1C1
4F4F
ACAC
1414
FAFA
C1C1
4F4F
ACAC
1414
FAFA
C1C1
4F4F
ACAC
1414
FAFA
C1C1
4F4F
ACAC
1414
FAFA
C1C1
4F4F
ACAC
1414
FAFA
C1C1
4F4F
ACAC
1414
FAFA
C1C1
4F4F
ACAC
1414
FAFA
C1C1
4F4F
ACAC
1414
FAFA
C1C1
4F4F
ACAC
1414
FAFA
C1C1
4F4F
ACAC
1414
FAFA
C1C1
4F4F
ACAC
1414
FAFA
C1C1
4F4F
ACAC
1414
FAFA
C1C1
4F4F
ACAC
1414
FAFA
C1C1
4F4F
ACAC
1414
FAFA
C1C1
4F4F
ACAC
1414
FAFA
C1C1
4F4F
ACAC
1414
FAFA
C1C1
4F4F
ACAC
1414
FAFA
C1C1
4F4F
ACAC
1414
FAFA
C1C1
4F4F
ACAC
1414
FAFA
C1C1
4F4F
ACAC
1414
FAFA
C1C1
4F4F
ACAC
1414
FAFA
C1C1
4F4F
ACAC
1414
FAFA
C1C1
4F4F
ACAC
1414
FAFA
C1C1
4F4F
ACAC
1414
FAFA
C1C1
4F4F
ACAC
1414
FAFA
C1C1
4F4F
ACAC
1414
FAFA
C1C1
4F4F
ACAC
1414
FAFA
C1C1
4F4F
ACAC
1414
FAFA
C1C1
4F4F
ACAC
1414
FAFA
C1C1
4F4F
ACAC
1414
FAFA
C1C1
4F4F
ACAC
1414
FAFA
C1C1
4F4F
ACAC
1414
FAFA
C1C1
4F4F
ACAC
1414
FAFA
C1C1
4F4F
ACAC
1414
FAFA
C1C1
4F4F
ACAC
1414
FAFA
C1C1
4F4F
ACAC
1414
FAFA
C1C1
4F4F
ACAC
1414
FAFA
C1C1
4F4F
ACAC
1414
FAFA
C1C1
4F4F
ACAC
1414
FAFA
C1C1
4F4F
ACAC
1414
FAFA
C1C1
4F4F
ACAC
1414
FAFA
C1C1
4F4F
ACAC
1414
FAFA
C1C1
4F4F
ACAC
1414
FAFA
C1C1
4F4F
ACAC
1414
FAFA
C1C1
4F4F
ACAC
1414
FAFA
C1C1
4F4F
ACAC
1414
FAFA
C1C1
4F4F
ACAC
1414
FAFA
C1C1
4F4F
ACAC
1414
FAFA
C1C1
4F4F
ACAC
1414
FAFA
C1C1
4F4F
ACAC
1414
FAFA
C1C1
4F4F
ACAC
1414
FAFA
C1C1
4F4F
ACAC
1414
FAFA
C1C1
4F4F
ACAC
1414
FAFA
C1C1
4F4F
ACAC
1414
FAFA
C1C1
4F4F
ACAC
1414
FAFA
C1C1
4F4F
ACAC
1414
FAFA
C1C1
4F4F
ACAC
1414
FAFA
C1C1
4F4F
ACAC
1414
FAFA
C1C1
4F4F
ACAC
1414
FAFA
C1C1
4F4F
ACAC
1414
FAFA
C1C1
4F4F
ACAC
1414
FAFA
C1C1
4F4F
ACAC
1414
FAFA
C1C1
4F4F
ACAC
1414
FAFA
C1C1
4F4F
ACAC
1414
FAFA
C1C1
4F4F
ACAC
1414
FAFA
C1C1
4F4F
ACAC
1414
FAFA
C1C1
4F4F
ACAC
1414
FAFA
C1C1
4F4F
ACAC
1414
FAFA
C1C1
4F4F
ACAC
1414
FAFA
C1C1
4F4F
ACAC
1414
FAFA
C1C1
4F4F
ACAC
1414
FAFA
C1C1
4F4F
ACAC
1414
FAFA
C1C1
4F4F
ACAC
1414
FAFA
C1C1
4F4F
ACAC
1414
FAFA
C1C1
4F4F
ACAC
1414
FAFA
C1C1
4F4F
ACAC
1414
FAFA
C1C1
4F4F
ACAC
1414
FAFA
C1C1
4F4F
ACAC
1414
FAFA
C1C1
4F4F
ACAC
1414
FAFA
C1C1
4F4F
ACAC
1414
FAFA
C1C1
4F4F
ACAC
1414
FAFA
C1C1
4F4F
ACAC
1414
FAFA
C1C1
4F4F
ACAC
1414
FAFA
C1C1
4F4F
ACAC
1414
FAFA
C1C1
4F4F
ACAC
1414
FAFA
C1C1
4F4F
ACAC
1414
FAFA
C1C1
4F4F
ACAC
1414
FAFA
C1C1
4F4F
ACAC
1414
FAFA
C1C1
4F4F
ACAC
1414
FAFA
C1C1
4F4F
ACAC
1414
FAFA
C1C1
4F4F
ACAC
1414
FAFA
C1C1
4F4F
ACAC
1414
FAFA
C1C1
4F4F
ACAC
1414
FAFA
C1C1
4F4F
ACAC
1414
FAFA
C1C1
4F4F
ACAC
1414
FAFA
C1C1
4F4F
ACAC
1414
FAFA
C1C1
4F4F
ACAC
1414
FAFA
C1C1
4F4F
ACAC
1414
FAFA
C1C1
4F4F
ACAC
1414
FAFA
C1C1
4F4F
ACAC
1414
FAFA
C1C1
4F4F
ACAC
1414
FAFA
C1C1
4F4F
ACAC
1414
FAFA
C1C1
4F4F
ACAC
1414
FAFA
C1C1
4F4F
ACAC
1414
FAFA
C1C1
4F4F
ACAC
1414
FAFA
C1C1
4F4F
ACAC
1414
FAFA
C1C1
4F4F
ACAC
1414
FAFA
C1C1
4F4F
ACAC
1414
FAFA
C1C1
4F4F
ACAC
1414
FAFA
C1C1
4F4F
ACAC
1414
FAFA
C1C1
4F4F
ACAC
1414
FAFA
C1C1
4F4F
ACAC
1414
FAFA
C1C1
4F4F
ACAC
1414
FAFA
C1C1
4F4F
ACAC
1414
FAFA
C1C1
4F4F
ACAC
1414
FAFA
C1C1
4F4F
ACAC
1414
FAFA
C1C1
4F4F
ACAC
1414
FAFA
C1C1
4F4F
ACAC
1414
FAFA
C1C1
4F4F
ACAC
1414
FAFA
C1C1
4F4F
ACAC
1414
FAFA
C1C1
4F4F
ACAC
1414
FAFA
C1C1
4F4F
ACAC
1414
FAFA
C1C1
4F4F
ACAC
1414
FAFA
C1C1
4F4F
ACAC
1414
FAFA
C1C1
4F4F
ACAC
1414
FAFA
C1C1
4F4F
ACAC
1414
FAFA
C1C1
4F4F
ACAC
1414
FAFA
C1C1
4F4F
ACAC
1414
FAFA
C1C1
4F4F
ACAC
1414
FAFA
C1C1
4F4F
ACAC
1414
FAFA
C1C1
4F4F
ACAC
1414
FAFA
C1C1
4F4F
ACAC
1414
FAFA
C1C1
4F4F
ACAC
1414
FAFA
C1C1
4F4F
ACAC
1414
FAFA
C1C1
4F4F
ACAC
1414
FAFA
C1C1
4F4F
ACAC
1414
FAFA
C1C1
4F4F
ACAC
1414
FAFA
C1C1
4F4F
ACAC
1414
FAFA
C1C1
4F4F
ACAC
1414
FAFA
C1C1
4F4F
ACAC
1414
FAFA
C1C1
4F4F
ACAC
1414
FAFA
C1C1
4F4F
ACAC
1414
FAFA
C1C1
4F4F
ACAC
1414
FAFA
C1C1
4F4F
ACAC
1414
FAFA
C1C1
4F4F
ACAC
1414
FAFA
C1C1
4F4F
ACAC
1414
FAFA
C1C1
4F4F
ACAC
1414
FAFA
C1C1
4F4F
ACAC
1414
FAFA
C1C1
4F4F
ACAC
1414
FAFA
C1C1
4F4F
ACAC
1414
FAFA
C1C1
4F4F
ACAC
1414
FAFA
C1C1
4F4F
ACAC
1414
FAFA
C1C1
4F4F
ACAC
1414
FAFA
C1C1
4F4F
ACAC
1414
FAFA
C1C1
4F4F
ACAC
1414
FAFA
C1C1
4F4F
ACAC
1414
FAFA
C1C1
4F4F
ACAC
1414
FAFA
C1C1
4F4F
ACAC
1414
FAFA
C1C1
4F4F
ACAC
1414
FAFA
C1C1
4F4F
ACAC
1414
FAFA
C1C1
4F4F
ACAC
1414
FAFA
C1C1
4F4F
ACAC
1414
FAFA
C1C1
4F4F
ACAC
1414
FAFA
C1C1
4F4F
ACAC
1414
FAFA
C1C1
4F4F
ACAC
1414
FAFA
C1C1
4F4F
ACAC
1414
FAFA
C1C1
4F4F
ACAC
1414
FAFA
C1C1
4F4F
ACAC
1414
FAFA
C1C1
4F4F
ACAC
1414
FAFA
C1C1
4F4F
ACAC
1414
FAFA
C1C1
4F4F
ACAC
1414
FAFA
C1C1
4F4F
ACAC
1414
FAFA
C1C1
4F4F
ACAC
1414
FAFA
C1C1
4F4F
ACAC
1414
FAFA
C1C1
4F4F
ACAC
1414
FAFA
C1C1
4F4F
ACAC
1414
FAFA
C1C1
4F4F
ACAC
1414
FAFA
C1C1
4F4F
ACAC
1414
FAFA
C1C1
4F4F
ACAC
1414
FAFA
C1C1
4F4F
ACAC
1414
FAFA
C1C1
4F4F
ACAC
1414
FAFA
C1C1
4F4F
ACAC
1414
FAFA
C1C1
4F4F
ACAC
1414
FAFA
C1C1
4F4F
ACAC
1414
FAFA
C1C1
4F4F
ACAC
1414
FAFA
C1C1
4F4F
ACAC
1414
FAFA
C1C1
4F4F
ACAC
1414
FAFA
C1C1
4F4F
ACAC
1414
FAFA
C1C1
4F4F
ACAC
1414
FAFA
C1C1
4F4F
ACAC
1414
FAFA
C1C1
4F4F
ACAC
1414
FAFA
C1C1
4F4F
ACAC
1414
FAFA
C1C1
4F4F
ACAC
1414
FAFA
C1C1
4F4F
ACAC
1414
FAFA
C1C1
4F4F
ACAC
1414
FAFA
C1C1
4F4F
ACAC
1414
FAFA
C1C1
4F4F
ACAC
1414
FAFA
C1C1
4F4F
ACAC
1414
FAFA
C1C1
4F4F
ACAC
1414
FAFA
C1C1
4F4F
ACAC
1414
FAFA
C1C1
4F4F
ACAC
1414
FAFA
C1C1
4F4F
ACAC
1414
FAFA
C1C1
4F4F
ACAC
1414
FAFA
C1C1
4F4F
ACAC
1414
FAFA
C1C1
4F4F
ACAC
1414
FAFA
C1C1
4F4F
ACAC
1414
FAFA
C1C1
4F4F
ACAC
1414
FAFA
C1C1
4F4F
ACAC
1414
FAFA
C1C1
4F4F
ACAC
1414
FAFA
C1C1
4F4F
ACAC
1414
FAFA
C1C1
4F4F
ACAC
1414
FAFA
C1C1
4F4F
ACAC
1414
FAFA
C1C1
4F4F
ACAC
1414
FAFA
C1C1
4F4F
ACAC
1414
FAFA
C1C1
4F4F
ACAC
1414
FAFA
C1C1
4F4F
ACAC
1414
FAFA
C1C1
4F4F
ACAC
1414
FAFA
C1C1
4F4F
ACAC
1414
FAFA
C1C1
4F4F
ACAC
1414
FAFA
C1C1
4F4F
ACAC
1414
FAFA
C1C1
4F4F
ACAC
1414
FAFA
C1C1
4F4F
ACAC
1414
FAFA
C1C1
4F4F
ACAC
1414
FAFA
C1C1
4F4F
ACAC
1414
FAFA
C1C1
4F4F
ACAC
1414
FAFA
C1C1
4F4F
ACAC
1414
FAFA
C1C1
4F4F
ACAC
1414
FAFA
C1C1
4F4F
ACAC
1414
FAFA
C1C1
4F4F
ACAC
1414
FAFA
C1C1
4F4F
ACAC
1414
FAFA
C1C1
4F4F
ACAC
1414
FAFA
C1C1
4F4F
ACAC
1414
FAFA
C1C1
4F4F
ACAC
1414
FAFA
C1C1
4F4F
ACAC
1414
FAFA
C1C1
4F4F
ACAC
1414
FAFA
C1C1
4F4F
ACAC
1414
FAFA
C1C1
4F4F
ACAC
1414
FAFA
C1C1
4F4F
ACAC
1414
FAFA
C1C1
4F4F
ACAC
1414
FAFA
C1C1
4F4F
ACAC
1414
FAFA
C1C1
4F4F
ACAC
1414
FAFA
C1C1
4F4F
ACAC
1414
FAFA
C1C1
4F4F
ACAC
1414
FAFA
C1C1
4F4F
ACAC
1414
FAFA
C1C1
4F4F
ACAC
1414
FAFA
C1C1
4F4F
ACAC
1414
FAFA
C1C1
4F4F
ACAC
1414
FAFA
C1C1
4F4F
ACAC
1414
FAFA
C1C1
4F4F
ACAC
1414
FAFA
C1C1
4F4F
ACAC
1414
FAFA
C1C1
4F4F
ACAC
1414
FAFA
C1C1
4F4F
ACAC
1414
FAFA
C1C1
4F4F
ACAC
1414
FAFA
C1C1
4F4F
ACAC
1414
FAFA
C1C1
4F4F
ACAC
1414
FAFA
C1C1
4F4F
ACAC
1414
FAFA
C1C1
4F4F
ACAC
1414
FAFA
C1C1
4F4F
ACAC
1414
FAFA
C1C1
4F4F
ACAC
1414
FAFA
C1C1
4F4F
ACAC
1414
FAFA
C1C1
4F4F
ACAC
1414
FAFA
C1C1
4F4F
ACAC
1414
FAFA
C1C1
4F4F
ACAC
1414
FAFA
C1C1
4F4F
ACAC
1414
FAFA
C1C1
4F4F
ACAC
1414
FAFA
C1C1
4F4F
ACAC
1414
FAFA
C1C1
4F4F
ACAC
1414
FAFA
C1C1
4F4F
ACAC
1414
FAFA
C1C1
4F4F
ACAC
1414
FAFA
C1C1
4F4F
ACAC
1414
FAFA
C1C1
4F4F
ACAC
1414
FAFA
C1C1
4F4F
ACAC
1414
FAFA
C1C1
4F4F
ACAC
1414
FAFA
C1C1
4F4F
ACAC
1414
FAFA
C1C1
4F4F
ACAC
1414
FAFA
C1C1
4F4F
ACAC
1414
FAFA
C1C1
4F4F
ACAC
1414
FAFA
C1C1
4F4F
ACAC
1414
FAFA
C1C1
4F4F
ACAC
1414
FAFA
C1C1
4F4F
ACAC
1414
FAFA
C1C1
4F4F
ACAC
1414
FAFA
C1C1
4F4F
ACAC
1414
FAFA
C1C1
4F4F
ACAC
1414
FAFA
C1C1
4F4F
ACAC
1414
FAFA
C1C1
4F4F
ACAC
1414
FAFA
C1C1
4F4F
ACAC
1414
FAFA
C1C1
4F4F
ACAC
1414
FAFA
C1C1
4F4F
ACAC
1414
FAFA
C1C1
4F4F
ACAC
1414
FAFA
C1C1
4F4F
ACAC
1414
FAFA
C1C1
4F4F
ACAC
1414
FAFA
C1C1
4F4F
ACAC
1414
FAFA
C1C1
4F4F
ACAC
1414
FAFA
C1C1
4F4F
ACAC
1414
FAFA
C1C1
4F4F
ACAC
1414
FAFA
C1C1
4F4F
ACAC
1414
FAFA
C1C1
4F4F
ACAC
1414
FAFA
C1C1
4F4F
ACAC
1414
FAFA
C1C1
4F4F
ACAC
1414
FAFA
C1C1
4F4F
ACAC
1414
FAFA
C1C1
4F4F
ACAC
1414
FAFA
C1C1
4F4F
ACAC
1414
FAFA
C1C1
4F4F
ACAC
1414
FAFA
C1C1
4F4F
ACAC
1414
FAFA
C1C1
4F4F
ACAC
1414
FAFA
C1C1
4F4F
ACAC
1414
FAFA
C1C1
4F4F
ACAC
1414
FAFA
C1C1
4F4F
ACAC
1414
FAFA
C1C1
4F4F
ACAC
1414
FAFA
C1C1
4F4F
ACAC
1414
FAFA
C1C1
4F4F
ACAC
1414
FAFA
C1C1
4F4F
ACAC
1414
FAFA
C1C1
4F4F
ACAC
1414
FAFA
C1C1
4F4F
ACAC
1414
FAFA
C1C1
4F4F
ACAC
1414
FAFA
C1C1
4F4F
ACAC
1414
FAFA
C1C1
4F4F
ACAC
1414
FAFA
C1C1
4F4F
ACAC
1414
FAFA
C1C1
4F4F
ACAC
1414
FAFA
C1C1
4F4F
ACAC
1414
FAFA
C1C1
4F4F
ACAC
1414
FAFA
C1C1
4F4F
ACAC
1414
FAFA
C1C1
4F4F
ACAC
1414
FAFA
C1C1
4F4F
ACAC
1414
FAFA
C1C1
4F4F
ACAC
1414
FAFA
C1C1
4F4F
ACAC
1414
FAFA
C1C1
4F4F
ACAC
1414
FAFA
C1C1
4F4F
ACAC
1414
FAFA
C1C1
4F4F
ACAC
1414
FAFA
C1C1
4F4F
ACAC
1414
FAFA
C1C1
4F4F
ACAC
1414
FAFA
C1C1
4F4F
ACAC
1414
FAFA
C1C1
4F4F
ACAC
1414
FAFA
C1C1
4F4F
ACAC
1414
FAFA
C1C1
4F4F
ACAC
1414
FAFA
C1C1
4F4F
ACAC
1414
FAFA
C1C1
4F4F
ACAC
1414
FAFA
C1C1
4F4F
ACAC
1414
FAFA
C1C1
4F4F
ACAC
1414
FAFA
C1C1
4F4F
ACAC
1414
FAFA
C1C1
4F4F
ACAC
1414
FAFA
C1C1
4F4F
ACAC
1414
FAFA
C1C1
4F4F
ACAC
1414
FAFA
C1C1
4F4F
ACAC
1414
FAFA
C1C1
4F4F
ACAC
1414
FAFA
C1C1
4F4F
ACAC
1414
FAFA
C1C1
4F4F
ACAC
1414
FAFA
C1C1
4F4F
ACAC
1414
FAFA
C1C1
4F4F
ACAC
1414
FAFA
C1C1
4F4F
ACAC
1414
FAFA
C1C1
4F4F
ACAC
1414
FAFA
C1C1
4F4F
ACAC
1414
FAFA
C1C1
4F4F
ACAC
1414
FAFA
C1C1
4F4F
ACAC
1414
FAFA
C1C1
4F4F
ACAC
1414
FAFA
C1C1
4F4F
ACAC
1414
FAFA
C1C1
4F4F
ACAC
1414
FAFA
C1C1
4F4F
ACAC
1414
FAFA
C1C1
4F4F
ACAC
1414
FAFA
C1C1
4F4F
ACAC
1414
FAFA
C1C1
4F4F
ACAC
1414
FAFA
C1C1
4F4F
ACAC
1414
FAFA
C1C1
4F4F
ACAC
1414
FAFA
C1C1
4F4F
ACAC
1414
FAFA
C1C1
4F4F
ACAC
1414
FAFA
C1C1
4F4F
ACAC
1414
FAFA
C1C1
4F4F
ACAC
1414
FAFA
C1C1
4F4F
ACAC
1414
FAFA
C1C1
4F4F
ACAC
1414
FAFA
C1C1
4F4F
ACAC
1414
FAFA
C1C1
4F4F
ACAC
1414
FAFA
C1C1
4F4F
ACAC
1414
FAFA
C1C1
4F4F
ACAC
1414
FAFA
C1C1
4F4F
ACAC
1414
FAFA
C1C1
4F4F
ACAC
1414
FAFA
C1C1
4F4F
ACAC
1414
FAFA
C1C1
4F4F
ACAC
1414
FAFA
C1C1
4F4F
ACAC
1414
FAFA
C1C1
4F4F
ACAC
1414
FAFA
C1C1
4F4F
ACAC
1414
FAFA
C1C1
4F4F
ACAC
1414
FAFA
C1C1
4F4F
ACAC
1414
FAFA
C1C1
4F4F
ACAC
1414
FAFA
C1C1
4F4F
ACAC
1414
FAFA
C1C1
4F4F
ACAC
1414
FAFA
C1C1
4F4F
ACAC
1414
FAFA
C1C1
4F4F
ACAC
1414
FAFA
C1C1
4F4F
ACAC
1414
FAFA
C1C1
4F4F
ACAC
1414
FAFA
C1C1
4F4F
ACAC
1414
FAFA
C1C1
4F4F
ACAC
1414
FAFA
C1C1
4F4F
ACAC
1414
FAFA
C1C1
4F4F
ACAC
1414
FAFA
C1C1
4F4F
ACAC
1414
FAFA
C1C1
4F4F
ACAC
1414
FAFA
C1C1
4F4F
ACAC
1414
FAFA
C1C1
4F4F
ACAC
1414
FAFA
C1C1
4F4F
ACAC
1414
FAFA
C1C1
4F4F
ACAC
1414
FAFA
C1C1
4F4F
ACAC
1414
FAFA
C1C1
4F4F
ACAC
1414
FAFA
C1C1
4F4F
ACAC
1414
FAFA
C1C1
4F4F
ACAC
1414
FAFA
C1C1
4F4F
ACAC
1414
FAFA
C1C1
4F4F
ACAC
1414
FAFA
C1C1
4F4F
ACAC
1414
FAFA
C1C1
4F4F
ACAC
1414
FAFA
C1C1
4F4F
ACAC
1414
FAFA
C1C1
4F4F
ACAC
1414
FAFA
C1C1
4F4F
ACAC
1414
FAFA
C1C1
4F4F
ACAC
1414
FAFA
C1C1
4F4F
ACAC
1414
FAFA
C1C1
4F4F
ACAC
1414
FAFA
C1C1
4F4F
ACAC
1414
FAFA
C1C1
4F4F
ACAC
1414
FAFA
C1C1
4F4F
ACAC
1414
FAFA
C1C1
4F4F
ACAC
1414
FAFA
C1C1
4F4F
ACAC
1414
FAFA
C1C1
4F4F
ACAC
1414
FAFA
C1C1
4F4F
ACAC
1414
FAFA
C1C1
4F4F
ACAC
1414
FAFA
C1C1
4F4F
ACAC
1414
FAFA
C1C1
4F4F
ACAC
1414
FAFA
C1C1
4F4F
ACAC
1414
FAFA
C1C1
4F4F
ACAC
1414
FAFA
C1C1
4F4F
ACAC
1414
FAFA
C1C1
4F4F
ACAC
1414
FAFA
C1C1
4F4F
ACAC
1414
FAFA
C1C1
4F4F
ACAC
1414
FAFA
C1C1
4F4F
ACAC
1414
FAFA
C1C1
4F4F
ACAC
1414
FAFA
C1C1
4F4F
ACAC
1414
FAFA
C1C1
4F4F
ACAC
1414
FAFA
C1C1
4F4F
ACAC
1414
FAFA
C1C1
4F4F
ACAC
1414
FAFA
C1C1
4F4F
ACAC
1414
FAFA
C1C1
4F4F
ACAC
1414
FAFA
C1C1
4F4F
ACAC
1414
FAFA
C1C1
4F4F
ACAC
1414
FAFA
C1C1
4F4F
ACAC
1414
FAFA
C1C1
4F4F
ACAC
1414
FAFA
C1C1
4F4F
ACAC
1414
FAFA
C1C1
4F4F
ACAC
1414
FAFA
C1C1
4F4F
ACAC
1414
FAFA
C1C1
4F4F
ACAC
1414
FAFA
C1C1
4F4F
ACAC
1414
FAFA
C1C1
4F4F
ACAC
1414
FAFA
C1C1
4F4F
ACAC
1414
FAFA
C1C1
4F4F
ACAC
1414
FAFA
C1C1
4F4F
ACAC
1414
FAFA
C1C1
4F4F
ACAC
1414
FAFA
C1C1
4F4F
ACAC
1414
FAFA
C1C1
4F4F
ACAC
1414
FAFA
C1C1
4F4F
ACAC
1414
FAFA
C1C1
4F4F
ACAC
1414
FAFA
C1C1
4F4F
ACAC
1414
FAFA
C1C1
4F4F
ACAC
1414
FAFA
C1C1
4F4F
ACAC
1414
FAFA
C1C1
4F4F
ACAC
1414
FAFA
C1C1
4F4F
ACAC
1414
FAFA
C1C1
4F4F
ACAC
1414
FAFA
C1C1
4F4F
ACAC
1414
FAFA
C1C1
4F4F
ACAC
1414
FAFA
C1C1
4F4F
ACAC
1414
FAFA
C1C1
4F4F
ACAC
1414
FAFA
C1C1
4F4F
ACAC
1414
FAFA
C1C1
4F4F
ACAC
1414
FAFA
C1C1
4F4F
ACAC
1414
FAFA
C1C1
4F4F
ACAC
1414
FAFA
C1C1
4F4F
ACAC
1414
FAFA
C1C1
4F4F
ACAC
1414
FAFA
C1C1
4F4F
ACAC
1414
FAFA
C1C1
4F4F
ACAC
1414
FAFA
C1C1
4F4F
ACAC
1414
FAFA
C1C1
4F4F
ACAC
1414
FAFA
C1C1
4F4F
ACAC
1414
FAFA
C1C1
4F4F
ACAC
1414
FAFA
C1C1
4F4F
ACAC
1414
FAFA
C1C1
4F4F
ACAC
1414
FAFA
C1C1
4F4F
ACAC
1414
FAFA
C1C1
4F4F
ACAC
1414
FAFA
C1C1
4F4F
ACAC
1414
FAFA
C1C1
4F4F
ACAC
1414
FAFA
C1C1
4F4F
ACAC
1414
FAFA
C1C1
4F4F
ACAC
1414
FAFA
C1C1
4F4F
ACAC
1414
FAFA
C1C1
4F4F
ACAC
1414
FAFA
C1C1
4F4F
ACAC
1414
FAFA
C1C1
4F4F
ACAC
1414
FAFA
C1C1
4F4F
ACAC
1414
FAFA
C1C1
4F4F
ACAC
1414
FAFA
C1C1
4F4F
ACAC
1414
FAFA
C1C1
4F4F
ACAC
1414
FAFA
C1C1
4F4F
ACAC
1414
FAFA
C1C1
4F4F
ACAC
1414
FAFA
C1C1
4F4F
ACAC
1414
FAFA
C1C1
4F4F
ACAC
1414
FAFA
C1C1
4F4F
ACAC
1414
FAFA
C1C1
4F4F
ACAC
1414
FAFA
C1C1
4F4F
ACAC
1414
FAFA
C1C1
4F4F
ACAC
1414
FAFA
C1C1
4F4F
ACAC
1414
FAFA
C1C1
4F4F
ACAC
1414
FAFA
C1C1
4F4F
ACAC
1414
FAFA
C1C1
4F4F
ACAC
1414
FAFA
C1C1
4F4F
ACAC
1414
FAFA
C1C1
4F4F
ACAC
1414
FAFA
C1C1
4F4F
ACAC
1414
FAFA
C1C1
4F4F
ACAC
1414
FAFA
C1C1
4F4F
ACAC
1414
FAFA
C1C1
4F4F
ACAC
1414
FAFA
C1C1
4F4F
ACAC
1414
FAFA
C1C1
4F4F
ACAC
1414
FAFA
C1C1
4F4F
ACAC
1414
FAFA
C1C1
4F4F
ACAC
1414
FAFA
C1C1
4F4F
ACAC
1414
FAFA
C1C1
4F4F
ACAC
1414
FAFA
C1C1
4F4F
ACAC
1414
FAFA
C1C1
4F4F
ACAC
1414
FAFA
C1C1
4F4F
ACAC
1414
FAFA
C1C1
4F4F
ACAC
1414
FAFA
C1C1
4F4F
ACAC
1414
FAFA
C1C1
4F4F
ACAC
1414
FAFA
C1C1
4F4F
ACAC
1414
FAFA
C1C1
4F4F
ACAC
1414
FAFA
C1C1
4F4F
ACAC
1414
FAFA
C1C1
4F4F
ACAC
1414
FAFA
C1C1
4F4F
ACAC
1414
FAFA
C1C1
4F4F
ACAC
1414
FAFA
C1C1
4F4F
ACAC
1414
FAFA
C1C1
4F4F
ACAC
1414
FAFA
C1C1
4F4F
ACAC
1414
FAFA
C1C1
4F4F
ACAC
1414
FAFA
C1C1
4F4F
ACAC
1414
FAFA
C1C1
4F4F
ACAC
1414
FAFA
C1C1
4F4F
ACAC
1414
FAFA
C1C1
4F4F
ACAC
1414
FAFA
C1C1
4F4F
ACAC
1414
FAFA
C1C1
4F4F
ACAC
1414
FAFA
C1C1
4F4F
ACAC
1414
FAFA
C1C1
4F4F
ACAC
1414
FAFA
C1C1
4F4F
ACAC
1414
FAFA
C1C1
4F4F
ACAC
1414
FAFA
C1C1
4F4F
ACAC
1414
FAFA
C1C1
4F4F
ACAC
1414
FAFA
C1C1
4F4F
ACAC
1414
FAFA
C1C1
4F4F
ACAC
1414
FAFA
C1C1
4F4F
ACAC
1414
FAFA
C1C1
4F4F
ACAC
1414
FAFA
C1C1
4F4F
ACAC
1414
FAFA
C1C1
4F4F
ACAC
1414
FAFA
C1C1
4F4F
ACAC
1414
FAFA
C1C1
4F4F
ACAC
1414
FAFA
C1C1
4F4F
ACAC
1414
FAFA
C1C1
4F4F
ACAC
1414
FAFA
C1C1
4F4F
ACAC
1414
FAFA
C1C1
4F4F
ACAC
1414
FAFA
C1C1
4F4F
ACAC
1414
FAFA
C1C1
4F4F
ACAC
1414
FAFA
C1C1
4F4F
ACAC
1414
FAFA
C1C1
4F4F
ACAC
1414
FAFA
C1C1
4F4F
ACAC
1414
FAFA
C1C1
4F4F
ACAC
1414
FAFA
C1C1
4F4F
ACAC
1414
FAFA
C1C1
4F4F
ACAC
1414
FAFA
C1C1
4F4F
ACAC
1414
FAFA
C1C1
4F4F
ACAC
1414
FAFA
C1C1
4F4F
ACAC
1414
FAFA
C1C1
4F4F
ACAC
1414
FAFA
0000
0000
0000
0000
