-- Fast command, BC=3, command=11 
6A
5A
-- Fast command, BC=1, command=3 
6A
93
-- Fast command, BC=0, command=10 
6A
CA
-- Fast command, BC=1, command=9 
6A
99
-- Fast command, BC=3, command=14 
6A
4E
-- Fast command, BC=3, command=2 
6A
B2
-- Fast command, BC=3, command=8 
6A
B8
-- Fast command, BC=1, command=14 
6A
1E
-- Fast command, BC=3, command=13 
6A
4D
-- Fast command, BC=1, command=14 
6A
1E
-- Fast command, BC=0, command=4 
6A
65
-- Fast command, BC=3, command=3 
6A
33
-- Fast command, BC=0, command=8 
6A
69
-- Fast command, BC=2, command=11 
6A
2B
-- Fast command, BC=3, command=7 
6A
56
-- Fast command, BC=3, command=3 
6A
33
-- Fast command, BC=1, command=7 
6A
17
-- Fast command, BC=3, command=3 
6A
33
-- Fast command, BC=1, command=14 
6A
1E
-- Fast command, BC=3, command=2 
6A
B2
-- Fast command, BC=2, command=7 
6A
27
-- Fast command, BC=1, command=14 
6A
1E
-- Fast command, BC=3, command=3 
6A
33
-- Fast command, BC=2, command=3 
6A
A3
-- Fast command, BC=0, command=7 
6A
87
-- Fast command, BC=3, command=3 
6A
33
-- Fast command, BC=1, command=5 
6A
95
-- Fast command, BC=3, command=8 
6A
B8
-- Fast command, BC=3, command=6 
6A
36
-- Fast command, BC=3, command=10 
6A
3A
-- Fast command, BC=3, command=9 
6A
39
-- Fast command, BC=1, command=5 
6A
95
-- Fast command, BC=1, command=12 
6A
9C
-- Fast command, BC=2, command=9 
6A
A9
-- Fast command, BC=0, command=7 
6A
87
-- Fast command, BC=2, command=3 
6A
A3
-- Fast command, BC=0, command=11 
6A
8B
-- Fast command, BC=1, command=8 
6A
D8
-- Fast command, BC=3, command=6 
6A
36
-- Fast command, BC=2, command=3 
6A
A3
