-- R3/L1, mask=27, tag=33 
36E1
-- R3/L1, mask=18, tag=116 
A5B4
-- R3/L1, mask=24, tag=87 
B117
-- R3/L1, mask=20, tag=118 
A936
-- R3/L1, mask=5, tag=124 
8B3C
-- R3/L1, mask=13, tag=97 
1BE1
-- R3/L1, mask=21, tag=66 
2B72
-- R3/L1, mask=16, tag=95 
E15C
-- R3/L1, mask=29, tag=122 
5A3A
-- R3/L1, mask=0, tag=112 
7174
-- R3/L1, mask=9, tag=78 
938E
-- R3/L1, mask=23, tag=96 
6C63
-- R3/L1, mask=3, tag=34 
C6E2
-- R3/L1, mask=2, tag=109 
C52D
-- R3/L1, mask=3, tag=7 
C687
-- R3/L1, mask=0, tag=21 
5995
-- R3/L1, mask=3, tag=53 
C635
-- R3/L1, mask=0, tag=48 
5974
-- R3/L1, mask=2, tag=25 
6599
-- R3/L1, mask=6, tag=26 
CC9A
-- R3/L1, mask=4, tag=19 
6993
-- R3/L1, mask=0, tag=69 
71C5
-- R3/L1, mask=24, tag=112 
B174
-- R3/L1, mask=18, tag=86 
A596
-- R3/L1, mask=24, tag=7 
7487
-- R3/L1, mask=0, tag=89 
7199
-- R3/L1, mask=22, tag=43 
AC2B
-- R3/L1, mask=0, tag=16 
5953
-- R3/L1, mask=6, tag=76 
8DCC
-- R3/L1, mask=29, tag=64 
5A59
-- R3/L1, mask=2, tag=117 
C535
-- R3/L1, mask=16, tag=93 
E11D
-- R3/L1, mask=15, tag=35 
1EA3
-- R3/L1, mask=16, tag=94 
E11E
-- R3/L1, mask=10, tag=43 
D42B
-- R3/L1, mask=27, tag=38 
36A6
-- R3/L1, mask=26, tag=49 
B4B1
-- R3/L1, mask=0, tag=119 
7156
-- R3/L1, mask=0, tag=113 
71B1
-- R3/L1, mask=27, tag=54 
3636
-- R3/L1, mask=10, tag=9 
D4C9
-- R3/L1, mask=12, tag=96 
9963
-- R3/L1, mask=22, tag=36 
ACE4
-- R3/L1, mask=22, tag=2 
AC72
-- R3/L1, mask=8, tag=14 
538E
-- R3/L1, mask=29, tag=54 
3A36
-- R3/L1, mask=20, tag=49 
E8B1
-- R3/L1, mask=30, tag=47 
3C6C
-- R3/L1, mask=25, tag=29 
B21D
-- R3/L1, mask=27, tag=121 
5639
-- R3/L1, mask=0, tag=47 
596C
-- R3/L1, mask=3, tag=101 
87A5
-- R3/L1, mask=1, tag=57 
7239
-- R3/L1, mask=31, tag=67 
66C3
-- R3/L1, mask=10, tag=1 
D471
-- R3/L1, mask=16, tag=83 
E193
-- R3/L1, mask=4, tag=53 
6935
-- R3/L1, mask=22, tag=100 
2DE4
-- R3/L1, mask=0, tag=115 
7133
-- R3/L1, mask=0, tag=50 
59B2
-- R3/L1, mask=0, tag=112 
7174
-- R3/L1, mask=28, tag=74 
39CA
-- R3/L1, mask=13, tag=10 
9ACA
-- R3/L1, mask=19, tag=90 
279A
-- R3/L1, mask=14, tag=86 
1D96
-- R3/L1, mask=22, tag=49 
ACB1
-- R3/L1, mask=22, tag=86 
2D96
-- R3/L1, mask=19, tag=15 
A64B
-- R3/L1, mask=13, tag=75 
1B8B
-- R3/L1, mask=0, tag=14 
598E
-- R3/L1, mask=21, tag=31 
AA5C
-- R3/L1, mask=16, tag=91 
E11B
-- R3/L1, mask=30, tag=70 
4DC6
-- R3/L1, mask=4, tag=90 
C99A
-- R3/L1, mask=0, tag=57 
5939
-- R3/L1, mask=0, tag=12 
59CC
-- R3/L1, mask=0, tag=92 
719C
-- R3/L1, mask=17, tag=98 
A3E2
-- R3/L1, mask=26, tag=13 
B48D
-- R3/L1, mask=0, tag=19 
5993
-- R3/L1, mask=4, tag=101 
C9A5
-- R3/L1, mask=13, tag=103 
1B27
-- R3/L1, mask=26, tag=54 
B436
-- R3/L1, mask=22, tag=98 
2DE2
-- R3/L1, mask=0, tag=64 
7159
-- R3/L1, mask=0, tag=86 
7196
-- R3/L1, mask=17, tag=99 
A3A3
-- R3/L1, mask=6, tag=110 
8D2E
-- R3/L1, mask=28, tag=33 
B8E1
-- R3/L1, mask=23, tag=53 
2E35
-- R3/L1, mask=12, tag=120 
99B8
-- R3/L1, mask=14, tag=62 
9C4E
-- R3/L1, mask=0, tag=84 
71D4
-- R3/L1, mask=11, tag=24 
96D8
-- R3/L1, mask=0, tag=76 
71CC
-- R3/L1, mask=12, tag=65 
9971
-- R3/L1, mask=25, tag=23 
B217
-- R3/L1, mask=27, tag=125 
564D
-- R3/L1, mask=11, tag=78 
178E
-- R3/L1, mask=3, tag=123 
875A
