-- Register write (HCC), hcc_id=5, abc_id=14, register_id=192, data=3728595970 
47
95
59
5A
59
59
59
8D
71
B1
71
56
59
B8
59
72
47
C5
-- Register write (HCC), hcc_id=4, abc_id=4, register_id=254, data=682082204 
47
D4
59
93
71
3C
59
72
71
C5
59
1E
71
66
59
9C
47
65
-- Register write (ABC), hcc_id=14, abc_id=8, register_id=60, data=1782352410 
47
4E
59
63
71
B8
59
C6
71
D1
71
B2
59
D4
59
9A
47
2E
-- Register write (HCC), hcc_id=7, abc_id=14, register_id=15, data=2764579281 
47
17
59
B8
59
1E
59
CA
59
A6
59
63
71
C3
71
D1
47
87
-- Register write (HCC), hcc_id=11, abc_id=11, register_id=47, data=1946140104 
47
1B
59
AC
71
1E
59
87
59
5C
71
4E
71
5A
71
69
47
8B
-- Register write (ABC), hcc_id=6, abc_id=8, register_id=255, data=3213771934 
47
36
59
A3
71
4E
59
8B
71
3C
59
39
59
C9
59
1E
47
A6
-- Register write (HCC), hcc_id=7, abc_id=12, register_id=45, data=3867652916 
47
17
59
74
71
9A
59
8E
59
B4
59
1E
71
A6
59
B4
47
87
-- Register write (HCC), hcc_id=15, abc_id=6, register_id=16, data=3861449806 
47
5C
59
D8
59
63
59
8E
59
B1
59
E4
59
D8
71
8E
47
4B
-- Register write (HCC), hcc_id=7, abc_id=13, register_id=29, data=3038287529 
47
17
59
B4
59
3A
59
8B
59
E8
71
E2
59
2D
59
A9
47
87
-- Register write (HCC), hcc_id=7, abc_id=14, register_id=47, data=1772388144 
47
17
59
B8
71
1E
59
C6
71
8D
59
D1
71
4E
59
74
47
87
-- Register write (HCC), hcc_id=5, abc_id=7, register_id=89, data=2817278088 
47
95
59
1D
59
B2
59
CA
59
66
59
B1
59
71
59
69
47
C5
-- Register write (HCC), hcc_id=1, abc_id=10, register_id=33, data=4151145747 
47
D1
59
E8
71
72
59
4B
59
5A
59
35
71
AA
59
93
47
71
-- Register write (HCC), hcc_id=8, abc_id=4, register_id=85, data=449064794 
47
D8
59
D1
59
AA
59
71
71
96
59
53
71
1E
71
9A
47
69
-- Register write (HCC), hcc_id=8, abc_id=3, register_id=210, data=4097358509 
47
D8
59
4B
59
E4
59
4B
59
E1
71
E2
71
35
59
2D
47
69
-- Register write (ABC), hcc_id=0, abc_id=2, register_id=50, data=2998561318 
47
74
59
69
71
E4
59
8B
59
95
71
A9
71
D4
59
A6
47
63
